DM Object: cubit(aise/AeroFS/Development/DMPlex/EXO/FourBrickTet-large.exo): 12/08/2017: 17 2 MPI processes
  type: plex
cubit(aise/AeroFS/Development/DMPlex/EXO/FourBrickTet-large.exo): 12/08/2017: 17 in 3 dimensions:
  Number of 0-cells per rank: 34 0
  Number of 1-cells per rank: 146 0
  Number of 2-cells per rank: 202 0
  Number of 3-cells per rank: 89 0
Labels:
  celltype: 4 strata with value/size (0 (34), 1 (146), 3 (202), 6 (89))
  depth: 4 strata with value/size (0 (34), 1 (146), 2 (202), 3 (89))
  Cell Sets: 4 strata with value/size (1 (24), 2 (23), 5 (24), 20 (18))
PetscViewer Object: 2 MPI processes
  type: exodusii
  Filename:    FourBrickTet-large_out.exo
  exoid:       -1
  IO Mode:     1
  Mesh order:  2
PetscViewer Object: 2 MPI processes
  type: exodusii
  Filename:    FourBrickTet-large_out.exo
  exoid:       65536
  IO Mode:     1
  Mesh order:  2
DM Object: Parallel Mesh 2 MPI processes
  type: plex
Parallel Mesh in 3 dimensions:
  Number of 0-cells per rank: 22 25
  Number of 1-cells per rank: 84 89
  Number of 2-cells per rank: 108 108
  Number of 3-cells per rank: 45 44
Labels:
  depth: 4 strata with value/size (0 (22), 1 (84), 2 (108), 3 (45))
  celltype: 4 strata with value/size (0 (22), 1 (84), 3 (108), 6 (45))
  Cell Sets: 2 strata with value/size (1 (24), 2 (21))
Field U:
  adjacency FEM
Field Sigma:
  adjacency FEM
Field Alpha:
  adjacency FEM
