DM Object: cubit(aise/AeroFS/Development/DMPlex/EXO/FourBrickTet-large.exo): 12/08/2017: 17 2 MPI processes
  type: plex
cubit(aise/AeroFS/Development/DMPlex/EXO/FourBrickTet-large.exo): 12/08/2017: 17 in 3 dimensions:
  Number of 0-cells per rank: 34 0
  Number of 1-cells per rank: 146 0
  Number of 2-cells per rank: 202 0
  Number of 3-cells per rank: 89 0
Labels:
  celltype: 4 strata with value/size (0 (34), 1 (146), 3 (202), 6 (89))
  depth: 4 strata with value/size (0 (34), 1 (146), 2 (202), 3 (89))
  Cell Sets: 4 strata with value/size (1 (24), 2 (23), 5 (24), 20 (18))
PetscViewer Object: 2 MPI processes
  type: exodusii
  Filename:    FourBrickTet-large_out.exo
  exoid:       -1
  IO Mode:     1
  Mesh order:  2
PetscViewer Object: 2 MPI processes
  type: exodusii
  Filename:    FourBrickTet-large_out.exo
  exoid:       65536
  IO Mode:     1
  Mesh order:  2
PetscSection Object: 2 MPI processes
  type not yet set
3 fields
  field 0 "U" with 3 components
Process 0:
  (   0) dim  0 offset   0
  (   1) dim  0 offset   6
  (   2) dim  0 offset  12
  (   3) dim  0 offset  18
  (   4) dim  0 offset  24
  (   5) dim  0 offset  30
  (   6) dim  0 offset  36
  (   7) dim  0 offset  42
  (   8) dim  0 offset  48
  (   9) dim  0 offset  54
  (  10) dim  0 offset  60
  (  11) dim  0 offset  66
  (  12) dim  0 offset  72
  (  13) dim  0 offset  78
  (  14) dim  0 offset  84
  (  15) dim  0 offset  90
  (  16) dim  0 offset  96
  (  17) dim  0 offset 102
  (  18) dim  0 offset 108
  (  19) dim  0 offset 114
  (  20) dim  0 offset 120
  (  21) dim  0 offset 126
  (  22) dim  0 offset 132
  (  23) dim  0 offset 138
  (  24) dim  0 offset 144
  (  25) dim  0 offset 150
  (  26) dim  0 offset 156
  (  27) dim  0 offset 162
  (  28) dim  0 offset 168
  (  29) dim  0 offset 174
  (  30) dim  0 offset 180
  (  31) dim  0 offset 186
  (  32) dim  0 offset 192
  (  33) dim  0 offset 198
  (  34) dim  0 offset 204
  (  35) dim  0 offset 210
  (  36) dim  0 offset 216
  (  37) dim  0 offset 222
  (  38) dim  0 offset 228
  (  39) dim  0 offset 234
  (  40) dim  0 offset 240
  (  41) dim  0 offset 246
  (  42) dim  0 offset 252
  (  43) dim  0 offset 258
  (  44) dim  0 offset 264
  (  45) dim  0 offset 270
  (  46) dim  0 offset 276
  (  47) dim  0 offset 282
  (  48) dim  0 offset 288
  (  49) dim  0 offset 294
  (  50) dim  0 offset 300
  (  51) dim  0 offset 306
  (  52) dim  0 offset 312
  (  53) dim  0 offset 318
  (  54) dim  0 offset 324
  (  55) dim  0 offset 330
  (  56) dim  0 offset 336
  (  57) dim  0 offset 342
  (  58) dim  0 offset 348
  (  59) dim  0 offset 354
  (  60) dim  0 offset 360
  (  61) dim  0 offset 366
  (  62) dim  0 offset 372
  (  63) dim  0 offset 378
  (  64) dim  0 offset 384
  (  65) dim  0 offset 390
  (  66) dim  0 offset 396
  (  67) dim  0 offset 402
  (  68) dim  0 offset 408
  (  69) dim  0 offset 414
  (  70) dim  0 offset 420
  (  71) dim  0 offset 426
  (  72) dim  0 offset 432
  (  73) dim  0 offset 438
  (  74) dim  0 offset 444
  (  75) dim  0 offset 450
  (  76) dim  0 offset 456
  (  77) dim  0 offset 462
  (  78) dim  0 offset 468
  (  79) dim  0 offset 474
  (  80) dim  0 offset 480
  (  81) dim  0 offset 486
  (  82) dim  0 offset 492
  (  83) dim  0 offset 498
  (  84) dim  0 offset 504
  (  85) dim  0 offset 510
  (  86) dim  0 offset 516
  (  87) dim  0 offset 522
  (  88) dim  0 offset 528
  (  89) dim  3 offset 534
  (  90) dim  3 offset 538
  (  91) dim  3 offset 542
  (  92) dim  3 offset 546
  (  93) dim  3 offset 550
  (  94) dim  3 offset 554
  (  95) dim  3 offset 558
  (  96) dim  3 offset 562
  (  97) dim  3 offset 566
  (  98) dim  3 offset 570
  (  99) dim  3 offset 574
  ( 100) dim  3 offset 578
  ( 101) dim  3 offset 582
  ( 102) dim  3 offset 586
  ( 103) dim  3 offset 590
  ( 104) dim  3 offset 594
  ( 105) dim  3 offset 598
  ( 106) dim  3 offset 602
  ( 107) dim  3 offset 606
  ( 108) dim  3 offset 610
  ( 109) dim  3 offset 614
  ( 110) dim  3 offset 618
  ( 111) dim  3 offset 622
  ( 112) dim  3 offset 626
  ( 113) dim  3 offset 630
  ( 114) dim  3 offset 634
  ( 115) dim  3 offset 638
  ( 116) dim  3 offset 642
  ( 117) dim  3 offset 646
  ( 118) dim  3 offset 650
  ( 119) dim  3 offset 654
  ( 120) dim  3 offset 658
  ( 121) dim  3 offset 662
  ( 122) dim  3 offset 666
  ( 123) dim  0 offset 670
  ( 124) dim  0 offset 670
  ( 125) dim  0 offset 670
  ( 126) dim  0 offset 670
  ( 127) dim  0 offset 670
  ( 128) dim  0 offset 670
  ( 129) dim  0 offset 670
  ( 130) dim  0 offset 670
  ( 131) dim  0 offset 670
  ( 132) dim  0 offset 670
  ( 133) dim  0 offset 670
  ( 134) dim  0 offset 670
  ( 135) dim  0 offset 670
  ( 136) dim  0 offset 670
  ( 137) dim  0 offset 670
  ( 138) dim  0 offset 670
  ( 139) dim  0 offset 670
  ( 140) dim  0 offset 670
  ( 141) dim  0 offset 670
  ( 142) dim  0 offset 670
  ( 143) dim  0 offset 670
  ( 144) dim  0 offset 670
  ( 145) dim  0 offset 670
  ( 146) dim  0 offset 670
  ( 147) dim  0 offset 670
  ( 148) dim  0 offset 670
  ( 149) dim  0 offset 670
  ( 150) dim  0 offset 670
  ( 151) dim  0 offset 670
  ( 152) dim  0 offset 670
  ( 153) dim  0 offset 670
  ( 154) dim  0 offset 670
  ( 155) dim  0 offset 670
  ( 156) dim  0 offset 670
  ( 157) dim  0 offset 670
  ( 158) dim  0 offset 670
  ( 159) dim  0 offset 670
  ( 160) dim  0 offset 670
  ( 161) dim  0 offset 670
  ( 162) dim  0 offset 670
  ( 163) dim  0 offset 670
  ( 164) dim  0 offset 670
  ( 165) dim  0 offset 670
  ( 166) dim  0 offset 670
  ( 167) dim  0 offset 670
  ( 168) dim  0 offset 670
  ( 169) dim  0 offset 670
  ( 170) dim  0 offset 670
  ( 171) dim  0 offset 670
  ( 172) dim  0 offset 670
  ( 173) dim  0 offset 670
  ( 174) dim  0 offset 670
  ( 175) dim  0 offset 670
  ( 176) dim  0 offset 670
  ( 177) dim  0 offset 670
  ( 178) dim  0 offset 670
  ( 179) dim  0 offset 670
  ( 180) dim  0 offset 670
  ( 181) dim  0 offset 670
  ( 182) dim  0 offset 670
  ( 183) dim  0 offset 670
  ( 184) dim  0 offset 670
  ( 185) dim  0 offset 670
  ( 186) dim  0 offset 670
  ( 187) dim  0 offset 670
  ( 188) dim  0 offset 670
  ( 189) dim  0 offset 670
  ( 190) dim  0 offset 670
  ( 191) dim  0 offset 670
  ( 192) dim  0 offset 670
  ( 193) dim  0 offset 670
  ( 194) dim  0 offset 670
  ( 195) dim  0 offset 670
  ( 196) dim  0 offset 670
  ( 197) dim  0 offset 670
  ( 198) dim  0 offset 670
  ( 199) dim  0 offset 670
  ( 200) dim  0 offset 670
  ( 201) dim  0 offset 670
  ( 202) dim  0 offset 670
  ( 203) dim  0 offset 670
  ( 204) dim  0 offset 670
  ( 205) dim  0 offset 670
  ( 206) dim  0 offset 670
  ( 207) dim  0 offset 670
  ( 208) dim  0 offset 670
  ( 209) dim  0 offset 670
  ( 210) dim  0 offset 670
  ( 211) dim  0 offset 670
  ( 212) dim  0 offset 670
  ( 213) dim  0 offset 670
  ( 214) dim  0 offset 670
  ( 215) dim  0 offset 670
  ( 216) dim  0 offset 670
  ( 217) dim  0 offset 670
  ( 218) dim  0 offset 670
  ( 219) dim  0 offset 670
  ( 220) dim  0 offset 670
  ( 221) dim  0 offset 670
  ( 222) dim  0 offset 670
  ( 223) dim  0 offset 670
  ( 224) dim  0 offset 670
  ( 225) dim  0 offset 670
  ( 226) dim  0 offset 670
  ( 227) dim  0 offset 670
  ( 228) dim  0 offset 670
  ( 229) dim  0 offset 670
  ( 230) dim  0 offset 670
  ( 231) dim  0 offset 670
  ( 232) dim  0 offset 670
  ( 233) dim  0 offset 670
  ( 234) dim  0 offset 670
  ( 235) dim  0 offset 670
  ( 236) dim  0 offset 670
  ( 237) dim  0 offset 670
  ( 238) dim  0 offset 670
  ( 239) dim  0 offset 670
  ( 240) dim  0 offset 670
  ( 241) dim  0 offset 670
  ( 242) dim  0 offset 670
  ( 243) dim  0 offset 670
  ( 244) dim  0 offset 670
  ( 245) dim  0 offset 670
  ( 246) dim  0 offset 670
  ( 247) dim  0 offset 670
  ( 248) dim  0 offset 670
  ( 249) dim  0 offset 670
  ( 250) dim  0 offset 670
  ( 251) dim  0 offset 670
  ( 252) dim  0 offset 670
  ( 253) dim  0 offset 670
  ( 254) dim  0 offset 670
  ( 255) dim  0 offset 670
  ( 256) dim  0 offset 670
  ( 257) dim  0 offset 670
  ( 258) dim  0 offset 670
  ( 259) dim  0 offset 670
  ( 260) dim  0 offset 670
  ( 261) dim  0 offset 670
  ( 262) dim  0 offset 670
  ( 263) dim  0 offset 670
  ( 264) dim  0 offset 670
  ( 265) dim  0 offset 670
  ( 266) dim  0 offset 670
  ( 267) dim  0 offset 670
  ( 268) dim  0 offset 670
  ( 269) dim  0 offset 670
  ( 270) dim  0 offset 670
  ( 271) dim  0 offset 670
  ( 272) dim  0 offset 670
  ( 273) dim  0 offset 670
  ( 274) dim  0 offset 670
  ( 275) dim  0 offset 670
  ( 276) dim  0 offset 670
  ( 277) dim  0 offset 670
  ( 278) dim  0 offset 670
  ( 279) dim  0 offset 670
  ( 280) dim  0 offset 670
  ( 281) dim  0 offset 670
  ( 282) dim  0 offset 670
  ( 283) dim  0 offset 670
  ( 284) dim  0 offset 670
  ( 285) dim  0 offset 670
  ( 286) dim  0 offset 670
  ( 287) dim  0 offset 670
  ( 288) dim  0 offset 670
  ( 289) dim  0 offset 670
  ( 290) dim  0 offset 670
  ( 291) dim  0 offset 670
  ( 292) dim  0 offset 670
  ( 293) dim  0 offset 670
  ( 294) dim  0 offset 670
  ( 295) dim  0 offset 670
  ( 296) dim  0 offset 670
  ( 297) dim  0 offset 670
  ( 298) dim  0 offset 670
  ( 299) dim  0 offset 670
  ( 300) dim  0 offset 670
  ( 301) dim  0 offset 670
  ( 302) dim  0 offset 670
  ( 303) dim  0 offset 670
  ( 304) dim  0 offset 670
  ( 305) dim  0 offset 670
  ( 306) dim  0 offset 670
  ( 307) dim  0 offset 670
  ( 308) dim  0 offset 670
  ( 309) dim  0 offset 670
  ( 310) dim  0 offset 670
  ( 311) dim  0 offset 670
  ( 312) dim  0 offset 670
  ( 313) dim  0 offset 670
  ( 314) dim  0 offset 670
  ( 315) dim  0 offset 670
  ( 316) dim  0 offset 670
  ( 317) dim  0 offset 670
  ( 318) dim  0 offset 670
  ( 319) dim  0 offset 670
  ( 320) dim  0 offset 670
  ( 321) dim  0 offset 670
  ( 322) dim  0 offset 670
  ( 323) dim  0 offset 670
  ( 324) dim  0 offset 670
  ( 325) dim  3 offset 670
  ( 326) dim  3 offset 674
  ( 327) dim  3 offset 678
  ( 328) dim  3 offset 682
  ( 329) dim  3 offset 686
  ( 330) dim  3 offset 690
  ( 331) dim  3 offset 694
  ( 332) dim  3 offset 698
  ( 333) dim  3 offset 702
  ( 334) dim  3 offset 706
  ( 335) dim  3 offset 710
  ( 336) dim  3 offset 714
  ( 337) dim  3 offset 718
  ( 338) dim  3 offset 722
  ( 339) dim  3 offset 726
  ( 340) dim  3 offset 730
  ( 341) dim  3 offset 734
  ( 342) dim  3 offset 738
  ( 343) dim  3 offset 742
  ( 344) dim  3 offset 746
  ( 345) dim  3 offset 750
  ( 346) dim  3 offset 754
  ( 347) dim  3 offset 758
  ( 348) dim  3 offset 762
  ( 349) dim  3 offset 766
  ( 350) dim  3 offset 770
  ( 351) dim  3 offset 774
  ( 352) dim  3 offset 778
  ( 353) dim  3 offset 782
  ( 354) dim  3 offset 786
  ( 355) dim  3 offset 790
  ( 356) dim  3 offset 794
  ( 357) dim  3 offset 798
  ( 358) dim  3 offset 802
  ( 359) dim  3 offset 806
  ( 360) dim  3 offset 810
  ( 361) dim  3 offset 814
  ( 362) dim  3 offset 818
  ( 363) dim  3 offset 822
  ( 364) dim  3 offset 826
  ( 365) dim  3 offset 830
  ( 366) dim  3 offset 834
  ( 367) dim  3 offset 838
  ( 368) dim  3 offset 842
  ( 369) dim  3 offset 846
  ( 370) dim  3 offset 850
  ( 371) dim  3 offset 854
  ( 372) dim  3 offset 858
  ( 373) dim  3 offset 862
  ( 374) dim  3 offset 866
  ( 375) dim  3 offset 870
  ( 376) dim  3 offset 874
  ( 377) dim  3 offset 878
  ( 378) dim  3 offset 882
  ( 379) dim  3 offset 886
  ( 380) dim  3 offset 890
  ( 381) dim  3 offset 894
  ( 382) dim  3 offset 898
  ( 383) dim  3 offset 902
  ( 384) dim  3 offset 906
  ( 385) dim  3 offset 910
  ( 386) dim  3 offset 914
  ( 387) dim  3 offset 918
  ( 388) dim  3 offset 922
  ( 389) dim  3 offset 926
  ( 390) dim  3 offset 930
  ( 391) dim  3 offset 934
  ( 392) dim  3 offset 938
  ( 393) dim  3 offset 942
  ( 394) dim  3 offset 946
  ( 395) dim  3 offset 950
  ( 396) dim  3 offset 954
  ( 397) dim  3 offset 958
  ( 398) dim  3 offset 962
  ( 399) dim  3 offset 966
  ( 400) dim  3 offset 970
  ( 401) dim  3 offset 974
  ( 402) dim  3 offset 978
  ( 403) dim  3 offset 982
  ( 404) dim  3 offset 986
  ( 405) dim  3 offset 990
  ( 406) dim  3 offset 994
  ( 407) dim  3 offset 998
  ( 408) dim  3 offset 1002
  ( 409) dim  3 offset 1006
  ( 410) dim  3 offset 1010
  ( 411) dim  3 offset 1014
  ( 412) dim  3 offset 1018
  ( 413) dim  3 offset 1022
  ( 414) dim  3 offset 1026
  ( 415) dim  3 offset 1030
  ( 416) dim  3 offset 1034
  ( 417) dim  3 offset 1038
  ( 418) dim  3 offset 1042
  ( 419) dim  3 offset 1046
  ( 420) dim  3 offset 1050
  ( 421) dim  3 offset 1054
  ( 422) dim  3 offset 1058
  ( 423) dim  3 offset 1062
  ( 424) dim  3 offset 1066
  ( 425) dim  3 offset 1070
  ( 426) dim  3 offset 1074
  ( 427) dim  3 offset 1078
  ( 428) dim  3 offset 1082
  ( 429) dim  3 offset 1086
  ( 430) dim  3 offset 1090
  ( 431) dim  3 offset 1094
  ( 432) dim  3 offset 1098
  ( 433) dim  3 offset 1102
  ( 434) dim  3 offset 1106
  ( 435) dim  3 offset 1110
  ( 436) dim  3 offset 1114
  ( 437) dim  3 offset 1118
  ( 438) dim  3 offset 1122
  ( 439) dim  3 offset 1126
  ( 440) dim  3 offset 1130
  ( 441) dim  3 offset 1134
  ( 442) dim  3 offset 1138
  ( 443) dim  3 offset 1142
  ( 444) dim  3 offset 1146
  ( 445) dim  3 offset 1150
  ( 446) dim  3 offset 1154
  ( 447) dim  3 offset 1158
  ( 448) dim  3 offset 1162
  ( 449) dim  3 offset 1166
  ( 450) dim  3 offset 1170
  ( 451) dim  3 offset 1174
  ( 452) dim  3 offset 1178
  ( 453) dim  3 offset 1182
  ( 454) dim  3 offset 1186
  ( 455) dim  3 offset 1190
  ( 456) dim  3 offset 1194
  ( 457) dim  3 offset 1198
  ( 458) dim  3 offset 1202
  ( 459) dim  3 offset 1206
  ( 460) dim  3 offset 1210
  ( 461) dim  3 offset 1214
  ( 462) dim  3 offset 1218
  ( 463) dim  3 offset 1222
  ( 464) dim  3 offset 1226
  ( 465) dim  3 offset 1230
  ( 466) dim  3 offset 1234
  ( 467) dim  3 offset 1238
  ( 468) dim  3 offset 1242
  ( 469) dim  3 offset 1246
  ( 470) dim  3 offset 1250
Process 1:
  field 1 "Sigma" with 6 components
Process 0:
  (   0) dim  6 offset   0
  (   1) dim  6 offset   6
  (   2) dim  6 offset  12
  (   3) dim  6 offset  18
  (   4) dim  6 offset  24
  (   5) dim  6 offset  30
  (   6) dim  6 offset  36
  (   7) dim  6 offset  42
  (   8) dim  6 offset  48
  (   9) dim  6 offset  54
  (  10) dim  6 offset  60
  (  11) dim  6 offset  66
  (  12) dim  6 offset  72
  (  13) dim  6 offset  78
  (  14) dim  6 offset  84
  (  15) dim  6 offset  90
  (  16) dim  6 offset  96
  (  17) dim  6 offset 102
  (  18) dim  6 offset 108
  (  19) dim  6 offset 114
  (  20) dim  6 offset 120
  (  21) dim  6 offset 126
  (  22) dim  6 offset 132
  (  23) dim  6 offset 138
  (  24) dim  6 offset 144
  (  25) dim  6 offset 150
  (  26) dim  6 offset 156
  (  27) dim  6 offset 162
  (  28) dim  6 offset 168
  (  29) dim  6 offset 174
  (  30) dim  6 offset 180
  (  31) dim  6 offset 186
  (  32) dim  6 offset 192
  (  33) dim  6 offset 198
  (  34) dim  6 offset 204
  (  35) dim  6 offset 210
  (  36) dim  6 offset 216
  (  37) dim  6 offset 222
  (  38) dim  6 offset 228
  (  39) dim  6 offset 234
  (  40) dim  6 offset 240
  (  41) dim  6 offset 246
  (  42) dim  6 offset 252
  (  43) dim  6 offset 258
  (  44) dim  6 offset 264
  (  45) dim  6 offset 270
  (  46) dim  6 offset 276
  (  47) dim  6 offset 282
  (  48) dim  6 offset 288
  (  49) dim  6 offset 294
  (  50) dim  6 offset 300
  (  51) dim  6 offset 306
  (  52) dim  6 offset 312
  (  53) dim  6 offset 318
  (  54) dim  6 offset 324
  (  55) dim  6 offset 330
  (  56) dim  6 offset 336
  (  57) dim  6 offset 342
  (  58) dim  6 offset 348
  (  59) dim  6 offset 354
  (  60) dim  6 offset 360
  (  61) dim  6 offset 366
  (  62) dim  6 offset 372
  (  63) dim  6 offset 378
  (  64) dim  6 offset 384
  (  65) dim  6 offset 390
  (  66) dim  6 offset 396
  (  67) dim  6 offset 402
  (  68) dim  6 offset 408
  (  69) dim  6 offset 414
  (  70) dim  6 offset 420
  (  71) dim  6 offset 426
  (  72) dim  6 offset 432
  (  73) dim  6 offset 438
  (  74) dim  6 offset 444
  (  75) dim  6 offset 450
  (  76) dim  6 offset 456
  (  77) dim  6 offset 462
  (  78) dim  6 offset 468
  (  79) dim  6 offset 474
  (  80) dim  6 offset 480
  (  81) dim  6 offset 486
  (  82) dim  6 offset 492
  (  83) dim  6 offset 498
  (  84) dim  6 offset 504
  (  85) dim  6 offset 510
  (  86) dim  6 offset 516
  (  87) dim  6 offset 522
  (  88) dim  6 offset 528
  (  89) dim  0 offset 537
  (  90) dim  0 offset 541
  (  91) dim  0 offset 545
  (  92) dim  0 offset 549
  (  93) dim  0 offset 553
  (  94) dim  0 offset 557
  (  95) dim  0 offset 561
  (  96) dim  0 offset 565
  (  97) dim  0 offset 569
  (  98) dim  0 offset 573
  (  99) dim  0 offset 577
  ( 100) dim  0 offset 581
  ( 101) dim  0 offset 585
  ( 102) dim  0 offset 589
  ( 103) dim  0 offset 593
  ( 104) dim  0 offset 597
  ( 105) dim  0 offset 601
  ( 106) dim  0 offset 605
  ( 107) dim  0 offset 609
  ( 108) dim  0 offset 613
  ( 109) dim  0 offset 617
  ( 110) dim  0 offset 621
  ( 111) dim  0 offset 625
  ( 112) dim  0 offset 629
  ( 113) dim  0 offset 633
  ( 114) dim  0 offset 637
  ( 115) dim  0 offset 641
  ( 116) dim  0 offset 645
  ( 117) dim  0 offset 649
  ( 118) dim  0 offset 653
  ( 119) dim  0 offset 657
  ( 120) dim  0 offset 661
  ( 121) dim  0 offset 665
  ( 122) dim  0 offset 669
  ( 123) dim  0 offset 670
  ( 124) dim  0 offset 670
  ( 125) dim  0 offset 670
  ( 126) dim  0 offset 670
  ( 127) dim  0 offset 670
  ( 128) dim  0 offset 670
  ( 129) dim  0 offset 670
  ( 130) dim  0 offset 670
  ( 131) dim  0 offset 670
  ( 132) dim  0 offset 670
  ( 133) dim  0 offset 670
  ( 134) dim  0 offset 670
  ( 135) dim  0 offset 670
  ( 136) dim  0 offset 670
  ( 137) dim  0 offset 670
  ( 138) dim  0 offset 670
  ( 139) dim  0 offset 670
  ( 140) dim  0 offset 670
  ( 141) dim  0 offset 670
  ( 142) dim  0 offset 670
  ( 143) dim  0 offset 670
  ( 144) dim  0 offset 670
  ( 145) dim  0 offset 670
  ( 146) dim  0 offset 670
  ( 147) dim  0 offset 670
  ( 148) dim  0 offset 670
  ( 149) dim  0 offset 670
  ( 150) dim  0 offset 670
  ( 151) dim  0 offset 670
  ( 152) dim  0 offset 670
  ( 153) dim  0 offset 670
  ( 154) dim  0 offset 670
  ( 155) dim  0 offset 670
  ( 156) dim  0 offset 670
  ( 157) dim  0 offset 670
  ( 158) dim  0 offset 670
  ( 159) dim  0 offset 670
  ( 160) dim  0 offset 670
  ( 161) dim  0 offset 670
  ( 162) dim  0 offset 670
  ( 163) dim  0 offset 670
  ( 164) dim  0 offset 670
  ( 165) dim  0 offset 670
  ( 166) dim  0 offset 670
  ( 167) dim  0 offset 670
  ( 168) dim  0 offset 670
  ( 169) dim  0 offset 670
  ( 170) dim  0 offset 670
  ( 171) dim  0 offset 670
  ( 172) dim  0 offset 670
  ( 173) dim  0 offset 670
  ( 174) dim  0 offset 670
  ( 175) dim  0 offset 670
  ( 176) dim  0 offset 670
  ( 177) dim  0 offset 670
  ( 178) dim  0 offset 670
  ( 179) dim  0 offset 670
  ( 180) dim  0 offset 670
  ( 181) dim  0 offset 670
  ( 182) dim  0 offset 670
  ( 183) dim  0 offset 670
  ( 184) dim  0 offset 670
  ( 185) dim  0 offset 670
  ( 186) dim  0 offset 670
  ( 187) dim  0 offset 670
  ( 188) dim  0 offset 670
  ( 189) dim  0 offset 670
  ( 190) dim  0 offset 670
  ( 191) dim  0 offset 670
  ( 192) dim  0 offset 670
  ( 193) dim  0 offset 670
  ( 194) dim  0 offset 670
  ( 195) dim  0 offset 670
  ( 196) dim  0 offset 670
  ( 197) dim  0 offset 670
  ( 198) dim  0 offset 670
  ( 199) dim  0 offset 670
  ( 200) dim  0 offset 670
  ( 201) dim  0 offset 670
  ( 202) dim  0 offset 670
  ( 203) dim  0 offset 670
  ( 204) dim  0 offset 670
  ( 205) dim  0 offset 670
  ( 206) dim  0 offset 670
  ( 207) dim  0 offset 670
  ( 208) dim  0 offset 670
  ( 209) dim  0 offset 670
  ( 210) dim  0 offset 670
  ( 211) dim  0 offset 670
  ( 212) dim  0 offset 670
  ( 213) dim  0 offset 670
  ( 214) dim  0 offset 670
  ( 215) dim  0 offset 670
  ( 216) dim  0 offset 670
  ( 217) dim  0 offset 670
  ( 218) dim  0 offset 670
  ( 219) dim  0 offset 670
  ( 220) dim  0 offset 670
  ( 221) dim  0 offset 670
  ( 222) dim  0 offset 670
  ( 223) dim  0 offset 670
  ( 224) dim  0 offset 670
  ( 225) dim  0 offset 670
  ( 226) dim  0 offset 670
  ( 227) dim  0 offset 670
  ( 228) dim  0 offset 670
  ( 229) dim  0 offset 670
  ( 230) dim  0 offset 670
  ( 231) dim  0 offset 670
  ( 232) dim  0 offset 670
  ( 233) dim  0 offset 670
  ( 234) dim  0 offset 670
  ( 235) dim  0 offset 670
  ( 236) dim  0 offset 670
  ( 237) dim  0 offset 670
  ( 238) dim  0 offset 670
  ( 239) dim  0 offset 670
  ( 240) dim  0 offset 670
  ( 241) dim  0 offset 670
  ( 242) dim  0 offset 670
  ( 243) dim  0 offset 670
  ( 244) dim  0 offset 670
  ( 245) dim  0 offset 670
  ( 246) dim  0 offset 670
  ( 247) dim  0 offset 670
  ( 248) dim  0 offset 670
  ( 249) dim  0 offset 670
  ( 250) dim  0 offset 670
  ( 251) dim  0 offset 670
  ( 252) dim  0 offset 670
  ( 253) dim  0 offset 670
  ( 254) dim  0 offset 670
  ( 255) dim  0 offset 670
  ( 256) dim  0 offset 670
  ( 257) dim  0 offset 670
  ( 258) dim  0 offset 670
  ( 259) dim  0 offset 670
  ( 260) dim  0 offset 670
  ( 261) dim  0 offset 670
  ( 262) dim  0 offset 670
  ( 263) dim  0 offset 670
  ( 264) dim  0 offset 670
  ( 265) dim  0 offset 670
  ( 266) dim  0 offset 670
  ( 267) dim  0 offset 670
  ( 268) dim  0 offset 670
  ( 269) dim  0 offset 670
  ( 270) dim  0 offset 670
  ( 271) dim  0 offset 670
  ( 272) dim  0 offset 670
  ( 273) dim  0 offset 670
  ( 274) dim  0 offset 670
  ( 275) dim  0 offset 670
  ( 276) dim  0 offset 670
  ( 277) dim  0 offset 670
  ( 278) dim  0 offset 670
  ( 279) dim  0 offset 670
  ( 280) dim  0 offset 670
  ( 281) dim  0 offset 670
  ( 282) dim  0 offset 670
  ( 283) dim  0 offset 670
  ( 284) dim  0 offset 670
  ( 285) dim  0 offset 670
  ( 286) dim  0 offset 670
  ( 287) dim  0 offset 670
  ( 288) dim  0 offset 670
  ( 289) dim  0 offset 670
  ( 290) dim  0 offset 670
  ( 291) dim  0 offset 670
  ( 292) dim  0 offset 670
  ( 293) dim  0 offset 670
  ( 294) dim  0 offset 670
  ( 295) dim  0 offset 670
  ( 296) dim  0 offset 670
  ( 297) dim  0 offset 670
  ( 298) dim  0 offset 670
  ( 299) dim  0 offset 670
  ( 300) dim  0 offset 670
  ( 301) dim  0 offset 670
  ( 302) dim  0 offset 670
  ( 303) dim  0 offset 670
  ( 304) dim  0 offset 670
  ( 305) dim  0 offset 670
  ( 306) dim  0 offset 670
  ( 307) dim  0 offset 670
  ( 308) dim  0 offset 670
  ( 309) dim  0 offset 670
  ( 310) dim  0 offset 670
  ( 311) dim  0 offset 670
  ( 312) dim  0 offset 670
  ( 313) dim  0 offset 670
  ( 314) dim  0 offset 670
  ( 315) dim  0 offset 670
  ( 316) dim  0 offset 670
  ( 317) dim  0 offset 670
  ( 318) dim  0 offset 670
  ( 319) dim  0 offset 670
  ( 320) dim  0 offset 670
  ( 321) dim  0 offset 670
  ( 322) dim  0 offset 670
  ( 323) dim  0 offset 670
  ( 324) dim  0 offset 670
  ( 325) dim  0 offset 673
  ( 326) dim  0 offset 677
  ( 327) dim  0 offset 681
  ( 328) dim  0 offset 685
  ( 329) dim  0 offset 689
  ( 330) dim  0 offset 693
  ( 331) dim  0 offset 697
  ( 332) dim  0 offset 701
  ( 333) dim  0 offset 705
  ( 334) dim  0 offset 709
  ( 335) dim  0 offset 713
  ( 336) dim  0 offset 717
  ( 337) dim  0 offset 721
  ( 338) dim  0 offset 725
  ( 339) dim  0 offset 729
  ( 340) dim  0 offset 733
  ( 341) dim  0 offset 737
  ( 342) dim  0 offset 741
  ( 343) dim  0 offset 745
  ( 344) dim  0 offset 749
  ( 345) dim  0 offset 753
  ( 346) dim  0 offset 757
  ( 347) dim  0 offset 761
  ( 348) dim  0 offset 765
  ( 349) dim  0 offset 769
  ( 350) dim  0 offset 773
  ( 351) dim  0 offset 777
  ( 352) dim  0 offset 781
  ( 353) dim  0 offset 785
  ( 354) dim  0 offset 789
  ( 355) dim  0 offset 793
  ( 356) dim  0 offset 797
  ( 357) dim  0 offset 801
  ( 358) dim  0 offset 805
  ( 359) dim  0 offset 809
  ( 360) dim  0 offset 813
  ( 361) dim  0 offset 817
  ( 362) dim  0 offset 821
  ( 363) dim  0 offset 825
  ( 364) dim  0 offset 829
  ( 365) dim  0 offset 833
  ( 366) dim  0 offset 837
  ( 367) dim  0 offset 841
  ( 368) dim  0 offset 845
  ( 369) dim  0 offset 849
  ( 370) dim  0 offset 853
  ( 371) dim  0 offset 857
  ( 372) dim  0 offset 861
  ( 373) dim  0 offset 865
  ( 374) dim  0 offset 869
  ( 375) dim  0 offset 873
  ( 376) dim  0 offset 877
  ( 377) dim  0 offset 881
  ( 378) dim  0 offset 885
  ( 379) dim  0 offset 889
  ( 380) dim  0 offset 893
  ( 381) dim  0 offset 897
  ( 382) dim  0 offset 901
  ( 383) dim  0 offset 905
  ( 384) dim  0 offset 909
  ( 385) dim  0 offset 913
  ( 386) dim  0 offset 917
  ( 387) dim  0 offset 921
  ( 388) dim  0 offset 925
  ( 389) dim  0 offset 929
  ( 390) dim  0 offset 933
  ( 391) dim  0 offset 937
  ( 392) dim  0 offset 941
  ( 393) dim  0 offset 945
  ( 394) dim  0 offset 949
  ( 395) dim  0 offset 953
  ( 396) dim  0 offset 957
  ( 397) dim  0 offset 961
  ( 398) dim  0 offset 965
  ( 399) dim  0 offset 969
  ( 400) dim  0 offset 973
  ( 401) dim  0 offset 977
  ( 402) dim  0 offset 981
  ( 403) dim  0 offset 985
  ( 404) dim  0 offset 989
  ( 405) dim  0 offset 993
  ( 406) dim  0 offset 997
  ( 407) dim  0 offset 1001
  ( 408) dim  0 offset 1005
  ( 409) dim  0 offset 1009
  ( 410) dim  0 offset 1013
  ( 411) dim  0 offset 1017
  ( 412) dim  0 offset 1021
  ( 413) dim  0 offset 1025
  ( 414) dim  0 offset 1029
  ( 415) dim  0 offset 1033
  ( 416) dim  0 offset 1037
  ( 417) dim  0 offset 1041
  ( 418) dim  0 offset 1045
  ( 419) dim  0 offset 1049
  ( 420) dim  0 offset 1053
  ( 421) dim  0 offset 1057
  ( 422) dim  0 offset 1061
  ( 423) dim  0 offset 1065
  ( 424) dim  0 offset 1069
  ( 425) dim  0 offset 1073
  ( 426) dim  0 offset 1077
  ( 427) dim  0 offset 1081
  ( 428) dim  0 offset 1085
  ( 429) dim  0 offset 1089
  ( 430) dim  0 offset 1093
  ( 431) dim  0 offset 1097
  ( 432) dim  0 offset 1101
  ( 433) dim  0 offset 1105
  ( 434) dim  0 offset 1109
  ( 435) dim  0 offset 1113
  ( 436) dim  0 offset 1117
  ( 437) dim  0 offset 1121
  ( 438) dim  0 offset 1125
  ( 439) dim  0 offset 1129
  ( 440) dim  0 offset 1133
  ( 441) dim  0 offset 1137
  ( 442) dim  0 offset 1141
  ( 443) dim  0 offset 1145
  ( 444) dim  0 offset 1149
  ( 445) dim  0 offset 1153
  ( 446) dim  0 offset 1157
  ( 447) dim  0 offset 1161
  ( 448) dim  0 offset 1165
  ( 449) dim  0 offset 1169
  ( 450) dim  0 offset 1173
  ( 451) dim  0 offset 1177
  ( 452) dim  0 offset 1181
  ( 453) dim  0 offset 1185
  ( 454) dim  0 offset 1189
  ( 455) dim  0 offset 1193
  ( 456) dim  0 offset 1197
  ( 457) dim  0 offset 1201
  ( 458) dim  0 offset 1205
  ( 459) dim  0 offset 1209
  ( 460) dim  0 offset 1213
  ( 461) dim  0 offset 1217
  ( 462) dim  0 offset 1221
  ( 463) dim  0 offset 1225
  ( 464) dim  0 offset 1229
  ( 465) dim  0 offset 1233
  ( 466) dim  0 offset 1237
  ( 467) dim  0 offset 1241
  ( 468) dim  0 offset 1245
  ( 469) dim  0 offset 1249
  ( 470) dim  0 offset 1253
Process 1:
  field 2 "Alpha" with 1 components
Process 0:
  (   0) dim  0 offset   6
  (   1) dim  0 offset  12
  (   2) dim  0 offset  18
  (   3) dim  0 offset  24
  (   4) dim  0 offset  30
  (   5) dim  0 offset  36
  (   6) dim  0 offset  42
  (   7) dim  0 offset  48
  (   8) dim  0 offset  54
  (   9) dim  0 offset  60
  (  10) dim  0 offset  66
  (  11) dim  0 offset  72
  (  12) dim  0 offset  78
  (  13) dim  0 offset  84
  (  14) dim  0 offset  90
  (  15) dim  0 offset  96
  (  16) dim  0 offset 102
  (  17) dim  0 offset 108
  (  18) dim  0 offset 114
  (  19) dim  0 offset 120
  (  20) dim  0 offset 126
  (  21) dim  0 offset 132
  (  22) dim  0 offset 138
  (  23) dim  0 offset 144
  (  24) dim  0 offset 150
  (  25) dim  0 offset 156
  (  26) dim  0 offset 162
  (  27) dim  0 offset 168
  (  28) dim  0 offset 174
  (  29) dim  0 offset 180
  (  30) dim  0 offset 186
  (  31) dim  0 offset 192
  (  32) dim  0 offset 198
  (  33) dim  0 offset 204
  (  34) dim  0 offset 210
  (  35) dim  0 offset 216
  (  36) dim  0 offset 222
  (  37) dim  0 offset 228
  (  38) dim  0 offset 234
  (  39) dim  0 offset 240
  (  40) dim  0 offset 246
  (  41) dim  0 offset 252
  (  42) dim  0 offset 258
  (  43) dim  0 offset 264
  (  44) dim  0 offset 270
  (  45) dim  0 offset 276
  (  46) dim  0 offset 282
  (  47) dim  0 offset 288
  (  48) dim  0 offset 294
  (  49) dim  0 offset 300
  (  50) dim  0 offset 306
  (  51) dim  0 offset 312
  (  52) dim  0 offset 318
  (  53) dim  0 offset 324
  (  54) dim  0 offset 330
  (  55) dim  0 offset 336
  (  56) dim  0 offset 342
  (  57) dim  0 offset 348
  (  58) dim  0 offset 354
  (  59) dim  0 offset 360
  (  60) dim  0 offset 366
  (  61) dim  0 offset 372
  (  62) dim  0 offset 378
  (  63) dim  0 offset 384
  (  64) dim  0 offset 390
  (  65) dim  0 offset 396
  (  66) dim  0 offset 402
  (  67) dim  0 offset 408
  (  68) dim  0 offset 414
  (  69) dim  0 offset 420
  (  70) dim  0 offset 426
  (  71) dim  0 offset 432
  (  72) dim  0 offset 438
  (  73) dim  0 offset 444
  (  74) dim  0 offset 450
  (  75) dim  0 offset 456
  (  76) dim  0 offset 462
  (  77) dim  0 offset 468
  (  78) dim  0 offset 474
  (  79) dim  0 offset 480
  (  80) dim  0 offset 486
  (  81) dim  0 offset 492
  (  82) dim  0 offset 498
  (  83) dim  0 offset 504
  (  84) dim  0 offset 510
  (  85) dim  0 offset 516
  (  86) dim  0 offset 522
  (  87) dim  0 offset 528
  (  88) dim  0 offset 534
  (  89) dim  1 offset 537
  (  90) dim  1 offset 541
  (  91) dim  1 offset 545
  (  92) dim  1 offset 549
  (  93) dim  1 offset 553
  (  94) dim  1 offset 557
  (  95) dim  1 offset 561
  (  96) dim  1 offset 565
  (  97) dim  1 offset 569
  (  98) dim  1 offset 573
  (  99) dim  1 offset 577
  ( 100) dim  1 offset 581
  ( 101) dim  1 offset 585
  ( 102) dim  1 offset 589
  ( 103) dim  1 offset 593
  ( 104) dim  1 offset 597
  ( 105) dim  1 offset 601
  ( 106) dim  1 offset 605
  ( 107) dim  1 offset 609
  ( 108) dim  1 offset 613
  ( 109) dim  1 offset 617
  ( 110) dim  1 offset 621
  ( 111) dim  1 offset 625
  ( 112) dim  1 offset 629
  ( 113) dim  1 offset 633
  ( 114) dim  1 offset 637
  ( 115) dim  1 offset 641
  ( 116) dim  1 offset 645
  ( 117) dim  1 offset 649
  ( 118) dim  1 offset 653
  ( 119) dim  1 offset 657
  ( 120) dim  1 offset 661
  ( 121) dim  1 offset 665
  ( 122) dim  1 offset 669
  ( 123) dim  0 offset 670
  ( 124) dim  0 offset 670
  ( 125) dim  0 offset 670
  ( 126) dim  0 offset 670
  ( 127) dim  0 offset 670
  ( 128) dim  0 offset 670
  ( 129) dim  0 offset 670
  ( 130) dim  0 offset 670
  ( 131) dim  0 offset 670
  ( 132) dim  0 offset 670
  ( 133) dim  0 offset 670
  ( 134) dim  0 offset 670
  ( 135) dim  0 offset 670
  ( 136) dim  0 offset 670
  ( 137) dim  0 offset 670
  ( 138) dim  0 offset 670
  ( 139) dim  0 offset 670
  ( 140) dim  0 offset 670
  ( 141) dim  0 offset 670
  ( 142) dim  0 offset 670
  ( 143) dim  0 offset 670
  ( 144) dim  0 offset 670
  ( 145) dim  0 offset 670
  ( 146) dim  0 offset 670
  ( 147) dim  0 offset 670
  ( 148) dim  0 offset 670
  ( 149) dim  0 offset 670
  ( 150) dim  0 offset 670
  ( 151) dim  0 offset 670
  ( 152) dim  0 offset 670
  ( 153) dim  0 offset 670
  ( 154) dim  0 offset 670
  ( 155) dim  0 offset 670
  ( 156) dim  0 offset 670
  ( 157) dim  0 offset 670
  ( 158) dim  0 offset 670
  ( 159) dim  0 offset 670
  ( 160) dim  0 offset 670
  ( 161) dim  0 offset 670
  ( 162) dim  0 offset 670
  ( 163) dim  0 offset 670
  ( 164) dim  0 offset 670
  ( 165) dim  0 offset 670
  ( 166) dim  0 offset 670
  ( 167) dim  0 offset 670
  ( 168) dim  0 offset 670
  ( 169) dim  0 offset 670
  ( 170) dim  0 offset 670
  ( 171) dim  0 offset 670
  ( 172) dim  0 offset 670
  ( 173) dim  0 offset 670
  ( 174) dim  0 offset 670
  ( 175) dim  0 offset 670
  ( 176) dim  0 offset 670
  ( 177) dim  0 offset 670
  ( 178) dim  0 offset 670
  ( 179) dim  0 offset 670
  ( 180) dim  0 offset 670
  ( 181) dim  0 offset 670
  ( 182) dim  0 offset 670
  ( 183) dim  0 offset 670
  ( 184) dim  0 offset 670
  ( 185) dim  0 offset 670
  ( 186) dim  0 offset 670
  ( 187) dim  0 offset 670
  ( 188) dim  0 offset 670
  ( 189) dim  0 offset 670
  ( 190) dim  0 offset 670
  ( 191) dim  0 offset 670
  ( 192) dim  0 offset 670
  ( 193) dim  0 offset 670
  ( 194) dim  0 offset 670
  ( 195) dim  0 offset 670
  ( 196) dim  0 offset 670
  ( 197) dim  0 offset 670
  ( 198) dim  0 offset 670
  ( 199) dim  0 offset 670
  ( 200) dim  0 offset 670
  ( 201) dim  0 offset 670
  ( 202) dim  0 offset 670
  ( 203) dim  0 offset 670
  ( 204) dim  0 offset 670
  ( 205) dim  0 offset 670
  ( 206) dim  0 offset 670
  ( 207) dim  0 offset 670
  ( 208) dim  0 offset 670
  ( 209) dim  0 offset 670
  ( 210) dim  0 offset 670
  ( 211) dim  0 offset 670
  ( 212) dim  0 offset 670
  ( 213) dim  0 offset 670
  ( 214) dim  0 offset 670
  ( 215) dim  0 offset 670
  ( 216) dim  0 offset 670
  ( 217) dim  0 offset 670
  ( 218) dim  0 offset 670
  ( 219) dim  0 offset 670
  ( 220) dim  0 offset 670
  ( 221) dim  0 offset 670
  ( 222) dim  0 offset 670
  ( 223) dim  0 offset 670
  ( 224) dim  0 offset 670
  ( 225) dim  0 offset 670
  ( 226) dim  0 offset 670
  ( 227) dim  0 offset 670
  ( 228) dim  0 offset 670
  ( 229) dim  0 offset 670
  ( 230) dim  0 offset 670
  ( 231) dim  0 offset 670
  ( 232) dim  0 offset 670
  ( 233) dim  0 offset 670
  ( 234) dim  0 offset 670
  ( 235) dim  0 offset 670
  ( 236) dim  0 offset 670
  ( 237) dim  0 offset 670
  ( 238) dim  0 offset 670
  ( 239) dim  0 offset 670
  ( 240) dim  0 offset 670
  ( 241) dim  0 offset 670
  ( 242) dim  0 offset 670
  ( 243) dim  0 offset 670
  ( 244) dim  0 offset 670
  ( 245) dim  0 offset 670
  ( 246) dim  0 offset 670
  ( 247) dim  0 offset 670
  ( 248) dim  0 offset 670
  ( 249) dim  0 offset 670
  ( 250) dim  0 offset 670
  ( 251) dim  0 offset 670
  ( 252) dim  0 offset 670
  ( 253) dim  0 offset 670
  ( 254) dim  0 offset 670
  ( 255) dim  0 offset 670
  ( 256) dim  0 offset 670
  ( 257) dim  0 offset 670
  ( 258) dim  0 offset 670
  ( 259) dim  0 offset 670
  ( 260) dim  0 offset 670
  ( 261) dim  0 offset 670
  ( 262) dim  0 offset 670
  ( 263) dim  0 offset 670
  ( 264) dim  0 offset 670
  ( 265) dim  0 offset 670
  ( 266) dim  0 offset 670
  ( 267) dim  0 offset 670
  ( 268) dim  0 offset 670
  ( 269) dim  0 offset 670
  ( 270) dim  0 offset 670
  ( 271) dim  0 offset 670
  ( 272) dim  0 offset 670
  ( 273) dim  0 offset 670
  ( 274) dim  0 offset 670
  ( 275) dim  0 offset 670
  ( 276) dim  0 offset 670
  ( 277) dim  0 offset 670
  ( 278) dim  0 offset 670
  ( 279) dim  0 offset 670
  ( 280) dim  0 offset 670
  ( 281) dim  0 offset 670
  ( 282) dim  0 offset 670
  ( 283) dim  0 offset 670
  ( 284) dim  0 offset 670
  ( 285) dim  0 offset 670
  ( 286) dim  0 offset 670
  ( 287) dim  0 offset 670
  ( 288) dim  0 offset 670
  ( 289) dim  0 offset 670
  ( 290) dim  0 offset 670
  ( 291) dim  0 offset 670
  ( 292) dim  0 offset 670
  ( 293) dim  0 offset 670
  ( 294) dim  0 offset 670
  ( 295) dim  0 offset 670
  ( 296) dim  0 offset 670
  ( 297) dim  0 offset 670
  ( 298) dim  0 offset 670
  ( 299) dim  0 offset 670
  ( 300) dim  0 offset 670
  ( 301) dim  0 offset 670
  ( 302) dim  0 offset 670
  ( 303) dim  0 offset 670
  ( 304) dim  0 offset 670
  ( 305) dim  0 offset 670
  ( 306) dim  0 offset 670
  ( 307) dim  0 offset 670
  ( 308) dim  0 offset 670
  ( 309) dim  0 offset 670
  ( 310) dim  0 offset 670
  ( 311) dim  0 offset 670
  ( 312) dim  0 offset 670
  ( 313) dim  0 offset 670
  ( 314) dim  0 offset 670
  ( 315) dim  0 offset 670
  ( 316) dim  0 offset 670
  ( 317) dim  0 offset 670
  ( 318) dim  0 offset 670
  ( 319) dim  0 offset 670
  ( 320) dim  0 offset 670
  ( 321) dim  0 offset 670
  ( 322) dim  0 offset 670
  ( 323) dim  0 offset 670
  ( 324) dim  0 offset 670
  ( 325) dim  1 offset 673
  ( 326) dim  1 offset 677
  ( 327) dim  1 offset 681
  ( 328) dim  1 offset 685
  ( 329) dim  1 offset 689
  ( 330) dim  1 offset 693
  ( 331) dim  1 offset 697
  ( 332) dim  1 offset 701
  ( 333) dim  1 offset 705
  ( 334) dim  1 offset 709
  ( 335) dim  1 offset 713
  ( 336) dim  1 offset 717
  ( 337) dim  1 offset 721
  ( 338) dim  1 offset 725
  ( 339) dim  1 offset 729
  ( 340) dim  1 offset 733
  ( 341) dim  1 offset 737
  ( 342) dim  1 offset 741
  ( 343) dim  1 offset 745
  ( 344) dim  1 offset 749
  ( 345) dim  1 offset 753
  ( 346) dim  1 offset 757
  ( 347) dim  1 offset 761
  ( 348) dim  1 offset 765
  ( 349) dim  1 offset 769
  ( 350) dim  1 offset 773
  ( 351) dim  1 offset 777
  ( 352) dim  1 offset 781
  ( 353) dim  1 offset 785
  ( 354) dim  1 offset 789
  ( 355) dim  1 offset 793
  ( 356) dim  1 offset 797
  ( 357) dim  1 offset 801
  ( 358) dim  1 offset 805
  ( 359) dim  1 offset 809
  ( 360) dim  1 offset 813
  ( 361) dim  1 offset 817
  ( 362) dim  1 offset 821
  ( 363) dim  1 offset 825
  ( 364) dim  1 offset 829
  ( 365) dim  1 offset 833
  ( 366) dim  1 offset 837
  ( 367) dim  1 offset 841
  ( 368) dim  1 offset 845
  ( 369) dim  1 offset 849
  ( 370) dim  1 offset 853
  ( 371) dim  1 offset 857
  ( 372) dim  1 offset 861
  ( 373) dim  1 offset 865
  ( 374) dim  1 offset 869
  ( 375) dim  1 offset 873
  ( 376) dim  1 offset 877
  ( 377) dim  1 offset 881
  ( 378) dim  1 offset 885
  ( 379) dim  1 offset 889
  ( 380) dim  1 offset 893
  ( 381) dim  1 offset 897
  ( 382) dim  1 offset 901
  ( 383) dim  1 offset 905
  ( 384) dim  1 offset 909
  ( 385) dim  1 offset 913
  ( 386) dim  1 offset 917
  ( 387) dim  1 offset 921
  ( 388) dim  1 offset 925
  ( 389) dim  1 offset 929
  ( 390) dim  1 offset 933
  ( 391) dim  1 offset 937
  ( 392) dim  1 offset 941
  ( 393) dim  1 offset 945
  ( 394) dim  1 offset 949
  ( 395) dim  1 offset 953
  ( 396) dim  1 offset 957
  ( 397) dim  1 offset 961
  ( 398) dim  1 offset 965
  ( 399) dim  1 offset 969
  ( 400) dim  1 offset 973
  ( 401) dim  1 offset 977
  ( 402) dim  1 offset 981
  ( 403) dim  1 offset 985
  ( 404) dim  1 offset 989
  ( 405) dim  1 offset 993
  ( 406) dim  1 offset 997
  ( 407) dim  1 offset 1001
  ( 408) dim  1 offset 1005
  ( 409) dim  1 offset 1009
  ( 410) dim  1 offset 1013
  ( 411) dim  1 offset 1017
  ( 412) dim  1 offset 1021
  ( 413) dim  1 offset 1025
  ( 414) dim  1 offset 1029
  ( 415) dim  1 offset 1033
  ( 416) dim  1 offset 1037
  ( 417) dim  1 offset 1041
  ( 418) dim  1 offset 1045
  ( 419) dim  1 offset 1049
  ( 420) dim  1 offset 1053
  ( 421) dim  1 offset 1057
  ( 422) dim  1 offset 1061
  ( 423) dim  1 offset 1065
  ( 424) dim  1 offset 1069
  ( 425) dim  1 offset 1073
  ( 426) dim  1 offset 1077
  ( 427) dim  1 offset 1081
  ( 428) dim  1 offset 1085
  ( 429) dim  1 offset 1089
  ( 430) dim  1 offset 1093
  ( 431) dim  1 offset 1097
  ( 432) dim  1 offset 1101
  ( 433) dim  1 offset 1105
  ( 434) dim  1 offset 1109
  ( 435) dim  1 offset 1113
  ( 436) dim  1 offset 1117
  ( 437) dim  1 offset 1121
  ( 438) dim  1 offset 1125
  ( 439) dim  1 offset 1129
  ( 440) dim  1 offset 1133
  ( 441) dim  1 offset 1137
  ( 442) dim  1 offset 1141
  ( 443) dim  1 offset 1145
  ( 444) dim  1 offset 1149
  ( 445) dim  1 offset 1153
  ( 446) dim  1 offset 1157
  ( 447) dim  1 offset 1161
  ( 448) dim  1 offset 1165
  ( 449) dim  1 offset 1169
  ( 450) dim  1 offset 1173
  ( 451) dim  1 offset 1177
  ( 452) dim  1 offset 1181
  ( 453) dim  1 offset 1185
  ( 454) dim  1 offset 1189
  ( 455) dim  1 offset 1193
  ( 456) dim  1 offset 1197
  ( 457) dim  1 offset 1201
  ( 458) dim  1 offset 1205
  ( 459) dim  1 offset 1209
  ( 460) dim  1 offset 1213
  ( 461) dim  1 offset 1217
  ( 462) dim  1 offset 1221
  ( 463) dim  1 offset 1225
  ( 464) dim  1 offset 1229
  ( 465) dim  1 offset 1233
  ( 466) dim  1 offset 1237
  ( 467) dim  1 offset 1241
  ( 468) dim  1 offset 1245
  ( 469) dim  1 offset 1249
  ( 470) dim  1 offset 1253
Process 1:
DM Object: Parallel Mesh 2 MPI processes
  type: plex
Parallel Mesh in 3 dimensions:
  Number of 0-cells per rank: 22 25
  Number of 1-cells per rank: 84 89
  Number of 2-cells per rank: 108 108
  Number of 3-cells per rank: 45 44
Labels:
  depth: 4 strata with value/size (0 (22), 1 (84), 2 (108), 3 (45))
  celltype: 4 strata with value/size (0 (22), 1 (84), 3 (108), 6 (45))
  Cell Sets: 2 strata with value/size (1 (24), 2 (21))
Field U:
  adjacency FEM
Field Sigma:
  adjacency FEM
Field Alpha:
  adjacency FEM
