DM Object: cubit(aise/AeroFS/Development/DMPlex/EXO/FourBrickTet-large.exo): 12/08/2017: 17 2 MPI processes
  type: plex
cubit(aise/AeroFS/Development/DMPlex/EXO/FourBrickTet-large.exo): 12/08/2017: 17 in 3 dimensions:
  Number of 0-cells per rank: 34 0
  Number of 1-cells per rank: 146 0
  Number of 2-cells per rank: 202 0
  Number of 3-cells per rank: 89 0
Labels:
  celltype: 4 strata with value/size (0 (34), 1 (146), 3 (202), 6 (89))
  depth: 4 strata with value/size (0 (34), 1 (146), 2 (202), 3 (89))
  Cell Sets: 4 strata with value/size (1 (24), 2 (23), 5 (24), 20 (18))
PetscViewer Object: 2 MPI processes
  type: exodusii
  Filename:    FourBrickTet-large_out.exo
  exoid:       -1
  IO Mode:     1
  Mesh order:  1
PetscViewer Object: 2 MPI processes
  type: exodusii
  Filename:    FourBrickTet-large_out.exo
  exoid:       65536
  IO Mode:     1
  Mesh order:  1
PetscSection Object: 2 MPI processes
  type not yet set
3 fields
  field 0 "U" with 3 components
Process 0:
  (   0) dim  0 offset   0
  (   1) dim  0 offset   6
  (   2) dim  0 offset  12
  (   3) dim  0 offset  18
  (   4) dim  0 offset  24
  (   5) dim  0 offset  30
  (   6) dim  0 offset  36
  (   7) dim  0 offset  42
  (   8) dim  0 offset  48
  (   9) dim  0 offset  54
  (  10) dim  0 offset  60
  (  11) dim  0 offset  66
  (  12) dim  0 offset  72
  (  13) dim  0 offset  78
  (  14) dim  0 offset  84
  (  15) dim  0 offset  90
  (  16) dim  0 offset  96
  (  17) dim  0 offset 102
  (  18) dim  0 offset 108
  (  19) dim  0 offset 114
  (  20) dim  0 offset 120
  (  21) dim  0 offset 126
  (  22) dim  0 offset 132
  (  23) dim  0 offset 138
  (  24) dim  0 offset 144
  (  25) dim  0 offset 150
  (  26) dim  0 offset 156
  (  27) dim  0 offset 162
  (  28) dim  0 offset 168
  (  29) dim  0 offset 174
  (  30) dim  0 offset 180
  (  31) dim  0 offset 186
  (  32) dim  0 offset 192
  (  33) dim  0 offset 198
  (  34) dim  0 offset 204
  (  35) dim  0 offset 210
  (  36) dim  0 offset 216
  (  37) dim  0 offset 222
  (  38) dim  0 offset 228
  (  39) dim  0 offset 234
  (  40) dim  0 offset 240
  (  41) dim  0 offset 246
  (  42) dim  0 offset 252
  (  43) dim  0 offset 258
  (  44) dim  0 offset 264
  (  45) dim  0 offset 270
  (  46) dim  0 offset 276
  (  47) dim  0 offset 282
  (  48) dim  0 offset 288
  (  49) dim  0 offset 294
  (  50) dim  0 offset 300
  (  51) dim  0 offset 306
  (  52) dim  0 offset 312
  (  53) dim  0 offset 318
  (  54) dim  0 offset 324
  (  55) dim  0 offset 330
  (  56) dim  0 offset 336
  (  57) dim  0 offset 342
  (  58) dim  0 offset 348
  (  59) dim  0 offset 354
  (  60) dim  0 offset 360
  (  61) dim  0 offset 366
  (  62) dim  0 offset 372
  (  63) dim  0 offset 378
  (  64) dim  0 offset 384
  (  65) dim  0 offset 390
  (  66) dim  0 offset 396
  (  67) dim  0 offset 402
  (  68) dim  0 offset 408
  (  69) dim  0 offset 414
  (  70) dim  0 offset 420
  (  71) dim  0 offset 426
  (  72) dim  0 offset 432
  (  73) dim  0 offset 438
  (  74) dim  0 offset 444
  (  75) dim  0 offset 450
  (  76) dim  0 offset 456
  (  77) dim  0 offset 462
  (  78) dim  0 offset 468
  (  79) dim  0 offset 474
  (  80) dim  0 offset 480
  (  81) dim  0 offset 486
  (  82) dim  0 offset 492
  (  83) dim  0 offset 498
  (  84) dim  0 offset 504
  (  85) dim  0 offset 510
  (  86) dim  0 offset 516
  (  87) dim  0 offset 522
  (  88) dim  0 offset 528
  (  89) dim  3 offset 534
  (  90) dim  3 offset 538
  (  91) dim  3 offset 542
  (  92) dim  3 offset 546
  (  93) dim  3 offset 550
  (  94) dim  3 offset 554
  (  95) dim  3 offset 558
  (  96) dim  3 offset 562
  (  97) dim  3 offset 566
  (  98) dim  3 offset 570
  (  99) dim  3 offset 574
  ( 100) dim  3 offset 578
  ( 101) dim  3 offset 582
  ( 102) dim  3 offset 586
  ( 103) dim  3 offset 590
  ( 104) dim  3 offset 594
  ( 105) dim  3 offset 598
  ( 106) dim  3 offset 602
  ( 107) dim  3 offset 606
  ( 108) dim  3 offset 610
  ( 109) dim  3 offset 614
  ( 110) dim  3 offset 618
  ( 111) dim  3 offset 622
  ( 112) dim  3 offset 626
  ( 113) dim  3 offset 630
  ( 114) dim  3 offset 634
  ( 115) dim  3 offset 638
  ( 116) dim  3 offset 642
  ( 117) dim  3 offset 646
  ( 118) dim  3 offset 650
  ( 119) dim  3 offset 654
  ( 120) dim  3 offset 658
  ( 121) dim  3 offset 662
  ( 122) dim  3 offset 666
  ( 123) dim  0 offset 670
  ( 124) dim  0 offset 670
  ( 125) dim  0 offset 670
  ( 126) dim  0 offset 670
  ( 127) dim  0 offset 670
  ( 128) dim  0 offset 670
  ( 129) dim  0 offset 670
  ( 130) dim  0 offset 670
  ( 131) dim  0 offset 670
  ( 132) dim  0 offset 670
  ( 133) dim  0 offset 670
  ( 134) dim  0 offset 670
  ( 135) dim  0 offset 670
  ( 136) dim  0 offset 670
  ( 137) dim  0 offset 670
  ( 138) dim  0 offset 670
  ( 139) dim  0 offset 670
  ( 140) dim  0 offset 670
  ( 141) dim  0 offset 670
  ( 142) dim  0 offset 670
  ( 143) dim  0 offset 670
  ( 144) dim  0 offset 670
  ( 145) dim  0 offset 670
  ( 146) dim  0 offset 670
  ( 147) dim  0 offset 670
  ( 148) dim  0 offset 670
  ( 149) dim  0 offset 670
  ( 150) dim  0 offset 670
  ( 151) dim  0 offset 670
  ( 152) dim  0 offset 670
  ( 153) dim  0 offset 670
  ( 154) dim  0 offset 670
  ( 155) dim  0 offset 670
  ( 156) dim  0 offset 670
  ( 157) dim  0 offset 670
  ( 158) dim  0 offset 670
  ( 159) dim  0 offset 670
  ( 160) dim  0 offset 670
  ( 161) dim  0 offset 670
  ( 162) dim  0 offset 670
  ( 163) dim  0 offset 670
  ( 164) dim  0 offset 670
  ( 165) dim  0 offset 670
  ( 166) dim  0 offset 670
  ( 167) dim  0 offset 670
  ( 168) dim  0 offset 670
  ( 169) dim  0 offset 670
  ( 170) dim  0 offset 670
  ( 171) dim  0 offset 670
  ( 172) dim  0 offset 670
  ( 173) dim  0 offset 670
  ( 174) dim  0 offset 670
  ( 175) dim  0 offset 670
  ( 176) dim  0 offset 670
  ( 177) dim  0 offset 670
  ( 178) dim  0 offset 670
  ( 179) dim  0 offset 670
  ( 180) dim  0 offset 670
  ( 181) dim  0 offset 670
  ( 182) dim  0 offset 670
  ( 183) dim  0 offset 670
  ( 184) dim  0 offset 670
  ( 185) dim  0 offset 670
  ( 186) dim  0 offset 670
  ( 187) dim  0 offset 670
  ( 188) dim  0 offset 670
  ( 189) dim  0 offset 670
  ( 190) dim  0 offset 670
  ( 191) dim  0 offset 670
  ( 192) dim  0 offset 670
  ( 193) dim  0 offset 670
  ( 194) dim  0 offset 670
  ( 195) dim  0 offset 670
  ( 196) dim  0 offset 670
  ( 197) dim  0 offset 670
  ( 198) dim  0 offset 670
  ( 199) dim  0 offset 670
  ( 200) dim  0 offset 670
  ( 201) dim  0 offset 670
  ( 202) dim  0 offset 670
  ( 203) dim  0 offset 670
  ( 204) dim  0 offset 670
  ( 205) dim  0 offset 670
  ( 206) dim  0 offset 670
  ( 207) dim  0 offset 670
  ( 208) dim  0 offset 670
  ( 209) dim  0 offset 670
  ( 210) dim  0 offset 670
  ( 211) dim  0 offset 670
  ( 212) dim  0 offset 670
  ( 213) dim  0 offset 670
  ( 214) dim  0 offset 670
  ( 215) dim  0 offset 670
  ( 216) dim  0 offset 670
  ( 217) dim  0 offset 670
  ( 218) dim  0 offset 670
  ( 219) dim  0 offset 670
  ( 220) dim  0 offset 670
  ( 221) dim  0 offset 670
  ( 222) dim  0 offset 670
  ( 223) dim  0 offset 670
  ( 224) dim  0 offset 670
  ( 225) dim  0 offset 670
  ( 226) dim  0 offset 670
  ( 227) dim  0 offset 670
  ( 228) dim  0 offset 670
  ( 229) dim  0 offset 670
  ( 230) dim  0 offset 670
  ( 231) dim  0 offset 670
  ( 232) dim  0 offset 670
  ( 233) dim  0 offset 670
  ( 234) dim  0 offset 670
  ( 235) dim  0 offset 670
  ( 236) dim  0 offset 670
  ( 237) dim  0 offset 670
  ( 238) dim  0 offset 670
  ( 239) dim  0 offset 670
  ( 240) dim  0 offset 670
  ( 241) dim  0 offset 670
  ( 242) dim  0 offset 670
  ( 243) dim  0 offset 670
  ( 244) dim  0 offset 670
  ( 245) dim  0 offset 670
  ( 246) dim  0 offset 670
  ( 247) dim  0 offset 670
  ( 248) dim  0 offset 670
  ( 249) dim  0 offset 670
  ( 250) dim  0 offset 670
  ( 251) dim  0 offset 670
  ( 252) dim  0 offset 670
  ( 253) dim  0 offset 670
  ( 254) dim  0 offset 670
  ( 255) dim  0 offset 670
  ( 256) dim  0 offset 670
  ( 257) dim  0 offset 670
  ( 258) dim  0 offset 670
  ( 259) dim  0 offset 670
  ( 260) dim  0 offset 670
  ( 261) dim  0 offset 670
  ( 262) dim  0 offset 670
  ( 263) dim  0 offset 670
  ( 264) dim  0 offset 670
  ( 265) dim  0 offset 670
  ( 266) dim  0 offset 670
  ( 267) dim  0 offset 670
  ( 268) dim  0 offset 670
  ( 269) dim  0 offset 670
  ( 270) dim  0 offset 670
  ( 271) dim  0 offset 670
  ( 272) dim  0 offset 670
  ( 273) dim  0 offset 670
  ( 274) dim  0 offset 670
  ( 275) dim  0 offset 670
  ( 276) dim  0 offset 670
  ( 277) dim  0 offset 670
  ( 278) dim  0 offset 670
  ( 279) dim  0 offset 670
  ( 280) dim  0 offset 670
  ( 281) dim  0 offset 670
  ( 282) dim  0 offset 670
  ( 283) dim  0 offset 670
  ( 284) dim  0 offset 670
  ( 285) dim  0 offset 670
  ( 286) dim  0 offset 670
  ( 287) dim  0 offset 670
  ( 288) dim  0 offset 670
  ( 289) dim  0 offset 670
  ( 290) dim  0 offset 670
  ( 291) dim  0 offset 670
  ( 292) dim  0 offset 670
  ( 293) dim  0 offset 670
  ( 294) dim  0 offset 670
  ( 295) dim  0 offset 670
  ( 296) dim  0 offset 670
  ( 297) dim  0 offset 670
  ( 298) dim  0 offset 670
  ( 299) dim  0 offset 670
  ( 300) dim  0 offset 670
  ( 301) dim  0 offset 670
  ( 302) dim  0 offset 670
  ( 303) dim  0 offset 670
  ( 304) dim  0 offset 670
  ( 305) dim  0 offset 670
  ( 306) dim  0 offset 670
  ( 307) dim  0 offset 670
  ( 308) dim  0 offset 670
  ( 309) dim  0 offset 670
  ( 310) dim  0 offset 670
  ( 311) dim  0 offset 670
  ( 312) dim  0 offset 670
  ( 313) dim  0 offset 670
  ( 314) dim  0 offset 670
  ( 315) dim  0 offset 670
  ( 316) dim  0 offset 670
  ( 317) dim  0 offset 670
  ( 318) dim  0 offset 670
  ( 319) dim  0 offset 670
  ( 320) dim  0 offset 670
  ( 321) dim  0 offset 670
  ( 322) dim  0 offset 670
  ( 323) dim  0 offset 670
  ( 324) dim  0 offset 670
  ( 325) dim  0 offset 670
  ( 326) dim  0 offset 670
  ( 327) dim  0 offset 670
  ( 328) dim  0 offset 670
  ( 329) dim  0 offset 670
  ( 330) dim  0 offset 670
  ( 331) dim  0 offset 670
  ( 332) dim  0 offset 670
  ( 333) dim  0 offset 670
  ( 334) dim  0 offset 670
  ( 335) dim  0 offset 670
  ( 336) dim  0 offset 670
  ( 337) dim  0 offset 670
  ( 338) dim  0 offset 670
  ( 339) dim  0 offset 670
  ( 340) dim  0 offset 670
  ( 341) dim  0 offset 670
  ( 342) dim  0 offset 670
  ( 343) dim  0 offset 670
  ( 344) dim  0 offset 670
  ( 345) dim  0 offset 670
  ( 346) dim  0 offset 670
  ( 347) dim  0 offset 670
  ( 348) dim  0 offset 670
  ( 349) dim  0 offset 670
  ( 350) dim  0 offset 670
  ( 351) dim  0 offset 670
  ( 352) dim  0 offset 670
  ( 353) dim  0 offset 670
  ( 354) dim  0 offset 670
  ( 355) dim  0 offset 670
  ( 356) dim  0 offset 670
  ( 357) dim  0 offset 670
  ( 358) dim  0 offset 670
  ( 359) dim  0 offset 670
  ( 360) dim  0 offset 670
  ( 361) dim  0 offset 670
  ( 362) dim  0 offset 670
  ( 363) dim  0 offset 670
  ( 364) dim  0 offset 670
  ( 365) dim  0 offset 670
  ( 366) dim  0 offset 670
  ( 367) dim  0 offset 670
  ( 368) dim  0 offset 670
  ( 369) dim  0 offset 670
  ( 370) dim  0 offset 670
  ( 371) dim  0 offset 670
  ( 372) dim  0 offset 670
  ( 373) dim  0 offset 670
  ( 374) dim  0 offset 670
  ( 375) dim  0 offset 670
  ( 376) dim  0 offset 670
  ( 377) dim  0 offset 670
  ( 378) dim  0 offset 670
  ( 379) dim  0 offset 670
  ( 380) dim  0 offset 670
  ( 381) dim  0 offset 670
  ( 382) dim  0 offset 670
  ( 383) dim  0 offset 670
  ( 384) dim  0 offset 670
  ( 385) dim  0 offset 670
  ( 386) dim  0 offset 670
  ( 387) dim  0 offset 670
  ( 388) dim  0 offset 670
  ( 389) dim  0 offset 670
  ( 390) dim  0 offset 670
  ( 391) dim  0 offset 670
  ( 392) dim  0 offset 670
  ( 393) dim  0 offset 670
  ( 394) dim  0 offset 670
  ( 395) dim  0 offset 670
  ( 396) dim  0 offset 670
  ( 397) dim  0 offset 670
  ( 398) dim  0 offset 670
  ( 399) dim  0 offset 670
  ( 400) dim  0 offset 670
  ( 401) dim  0 offset 670
  ( 402) dim  0 offset 670
  ( 403) dim  0 offset 670
  ( 404) dim  0 offset 670
  ( 405) dim  0 offset 670
  ( 406) dim  0 offset 670
  ( 407) dim  0 offset 670
  ( 408) dim  0 offset 670
  ( 409) dim  0 offset 670
  ( 410) dim  0 offset 670
  ( 411) dim  0 offset 670
  ( 412) dim  0 offset 670
  ( 413) dim  0 offset 670
  ( 414) dim  0 offset 670
  ( 415) dim  0 offset 670
  ( 416) dim  0 offset 670
  ( 417) dim  0 offset 670
  ( 418) dim  0 offset 670
  ( 419) dim  0 offset 670
  ( 420) dim  0 offset 670
  ( 421) dim  0 offset 670
  ( 422) dim  0 offset 670
  ( 423) dim  0 offset 670
  ( 424) dim  0 offset 670
  ( 425) dim  0 offset 670
  ( 426) dim  0 offset 670
  ( 427) dim  0 offset 670
  ( 428) dim  0 offset 670
  ( 429) dim  0 offset 670
  ( 430) dim  0 offset 670
  ( 431) dim  0 offset 670
  ( 432) dim  0 offset 670
  ( 433) dim  0 offset 670
  ( 434) dim  0 offset 670
  ( 435) dim  0 offset 670
  ( 436) dim  0 offset 670
  ( 437) dim  0 offset 670
  ( 438) dim  0 offset 670
  ( 439) dim  0 offset 670
  ( 440) dim  0 offset 670
  ( 441) dim  0 offset 670
  ( 442) dim  0 offset 670
  ( 443) dim  0 offset 670
  ( 444) dim  0 offset 670
  ( 445) dim  0 offset 670
  ( 446) dim  0 offset 670
  ( 447) dim  0 offset 670
  ( 448) dim  0 offset 670
  ( 449) dim  0 offset 670
  ( 450) dim  0 offset 670
  ( 451) dim  0 offset 670
  ( 452) dim  0 offset 670
  ( 453) dim  0 offset 670
  ( 454) dim  0 offset 670
  ( 455) dim  0 offset 670
  ( 456) dim  0 offset 670
  ( 457) dim  0 offset 670
  ( 458) dim  0 offset 670
  ( 459) dim  0 offset 670
  ( 460) dim  0 offset 670
  ( 461) dim  0 offset 670
  ( 462) dim  0 offset 670
  ( 463) dim  0 offset 670
  ( 464) dim  0 offset 670
  ( 465) dim  0 offset 670
  ( 466) dim  0 offset 670
  ( 467) dim  0 offset 670
  ( 468) dim  0 offset 670
  ( 469) dim  0 offset 670
  ( 470) dim  0 offset 670
Process 1:
  field 1 "Sigma" with 6 components
Process 0:
  (   0) dim  6 offset   0
  (   1) dim  6 offset   6
  (   2) dim  6 offset  12
  (   3) dim  6 offset  18
  (   4) dim  6 offset  24
  (   5) dim  6 offset  30
  (   6) dim  6 offset  36
  (   7) dim  6 offset  42
  (   8) dim  6 offset  48
  (   9) dim  6 offset  54
  (  10) dim  6 offset  60
  (  11) dim  6 offset  66
  (  12) dim  6 offset  72
  (  13) dim  6 offset  78
  (  14) dim  6 offset  84
  (  15) dim  6 offset  90
  (  16) dim  6 offset  96
  (  17) dim  6 offset 102
  (  18) dim  6 offset 108
  (  19) dim  6 offset 114
  (  20) dim  6 offset 120
  (  21) dim  6 offset 126
  (  22) dim  6 offset 132
  (  23) dim  6 offset 138
  (  24) dim  6 offset 144
  (  25) dim  6 offset 150
  (  26) dim  6 offset 156
  (  27) dim  6 offset 162
  (  28) dim  6 offset 168
  (  29) dim  6 offset 174
  (  30) dim  6 offset 180
  (  31) dim  6 offset 186
  (  32) dim  6 offset 192
  (  33) dim  6 offset 198
  (  34) dim  6 offset 204
  (  35) dim  6 offset 210
  (  36) dim  6 offset 216
  (  37) dim  6 offset 222
  (  38) dim  6 offset 228
  (  39) dim  6 offset 234
  (  40) dim  6 offset 240
  (  41) dim  6 offset 246
  (  42) dim  6 offset 252
  (  43) dim  6 offset 258
  (  44) dim  6 offset 264
  (  45) dim  6 offset 270
  (  46) dim  6 offset 276
  (  47) dim  6 offset 282
  (  48) dim  6 offset 288
  (  49) dim  6 offset 294
  (  50) dim  6 offset 300
  (  51) dim  6 offset 306
  (  52) dim  6 offset 312
  (  53) dim  6 offset 318
  (  54) dim  6 offset 324
  (  55) dim  6 offset 330
  (  56) dim  6 offset 336
  (  57) dim  6 offset 342
  (  58) dim  6 offset 348
  (  59) dim  6 offset 354
  (  60) dim  6 offset 360
  (  61) dim  6 offset 366
  (  62) dim  6 offset 372
  (  63) dim  6 offset 378
  (  64) dim  6 offset 384
  (  65) dim  6 offset 390
  (  66) dim  6 offset 396
  (  67) dim  6 offset 402
  (  68) dim  6 offset 408
  (  69) dim  6 offset 414
  (  70) dim  6 offset 420
  (  71) dim  6 offset 426
  (  72) dim  6 offset 432
  (  73) dim  6 offset 438
  (  74) dim  6 offset 444
  (  75) dim  6 offset 450
  (  76) dim  6 offset 456
  (  77) dim  6 offset 462
  (  78) dim  6 offset 468
  (  79) dim  6 offset 474
  (  80) dim  6 offset 480
  (  81) dim  6 offset 486
  (  82) dim  6 offset 492
  (  83) dim  6 offset 498
  (  84) dim  6 offset 504
  (  85) dim  6 offset 510
  (  86) dim  6 offset 516
  (  87) dim  6 offset 522
  (  88) dim  6 offset 528
  (  89) dim  0 offset 537
  (  90) dim  0 offset 541
  (  91) dim  0 offset 545
  (  92) dim  0 offset 549
  (  93) dim  0 offset 553
  (  94) dim  0 offset 557
  (  95) dim  0 offset 561
  (  96) dim  0 offset 565
  (  97) dim  0 offset 569
  (  98) dim  0 offset 573
  (  99) dim  0 offset 577
  ( 100) dim  0 offset 581
  ( 101) dim  0 offset 585
  ( 102) dim  0 offset 589
  ( 103) dim  0 offset 593
  ( 104) dim  0 offset 597
  ( 105) dim  0 offset 601
  ( 106) dim  0 offset 605
  ( 107) dim  0 offset 609
  ( 108) dim  0 offset 613
  ( 109) dim  0 offset 617
  ( 110) dim  0 offset 621
  ( 111) dim  0 offset 625
  ( 112) dim  0 offset 629
  ( 113) dim  0 offset 633
  ( 114) dim  0 offset 637
  ( 115) dim  0 offset 641
  ( 116) dim  0 offset 645
  ( 117) dim  0 offset 649
  ( 118) dim  0 offset 653
  ( 119) dim  0 offset 657
  ( 120) dim  0 offset 661
  ( 121) dim  0 offset 665
  ( 122) dim  0 offset 669
  ( 123) dim  0 offset 670
  ( 124) dim  0 offset 670
  ( 125) dim  0 offset 670
  ( 126) dim  0 offset 670
  ( 127) dim  0 offset 670
  ( 128) dim  0 offset 670
  ( 129) dim  0 offset 670
  ( 130) dim  0 offset 670
  ( 131) dim  0 offset 670
  ( 132) dim  0 offset 670
  ( 133) dim  0 offset 670
  ( 134) dim  0 offset 670
  ( 135) dim  0 offset 670
  ( 136) dim  0 offset 670
  ( 137) dim  0 offset 670
  ( 138) dim  0 offset 670
  ( 139) dim  0 offset 670
  ( 140) dim  0 offset 670
  ( 141) dim  0 offset 670
  ( 142) dim  0 offset 670
  ( 143) dim  0 offset 670
  ( 144) dim  0 offset 670
  ( 145) dim  0 offset 670
  ( 146) dim  0 offset 670
  ( 147) dim  0 offset 670
  ( 148) dim  0 offset 670
  ( 149) dim  0 offset 670
  ( 150) dim  0 offset 670
  ( 151) dim  0 offset 670
  ( 152) dim  0 offset 670
  ( 153) dim  0 offset 670
  ( 154) dim  0 offset 670
  ( 155) dim  0 offset 670
  ( 156) dim  0 offset 670
  ( 157) dim  0 offset 670
  ( 158) dim  0 offset 670
  ( 159) dim  0 offset 670
  ( 160) dim  0 offset 670
  ( 161) dim  0 offset 670
  ( 162) dim  0 offset 670
  ( 163) dim  0 offset 670
  ( 164) dim  0 offset 670
  ( 165) dim  0 offset 670
  ( 166) dim  0 offset 670
  ( 167) dim  0 offset 670
  ( 168) dim  0 offset 670
  ( 169) dim  0 offset 670
  ( 170) dim  0 offset 670
  ( 171) dim  0 offset 670
  ( 172) dim  0 offset 670
  ( 173) dim  0 offset 670
  ( 174) dim  0 offset 670
  ( 175) dim  0 offset 670
  ( 176) dim  0 offset 670
  ( 177) dim  0 offset 670
  ( 178) dim  0 offset 670
  ( 179) dim  0 offset 670
  ( 180) dim  0 offset 670
  ( 181) dim  0 offset 670
  ( 182) dim  0 offset 670
  ( 183) dim  0 offset 670
  ( 184) dim  0 offset 670
  ( 185) dim  0 offset 670
  ( 186) dim  0 offset 670
  ( 187) dim  0 offset 670
  ( 188) dim  0 offset 670
  ( 189) dim  0 offset 670
  ( 190) dim  0 offset 670
  ( 191) dim  0 offset 670
  ( 192) dim  0 offset 670
  ( 193) dim  0 offset 670
  ( 194) dim  0 offset 670
  ( 195) dim  0 offset 670
  ( 196) dim  0 offset 670
  ( 197) dim  0 offset 670
  ( 198) dim  0 offset 670
  ( 199) dim  0 offset 670
  ( 200) dim  0 offset 670
  ( 201) dim  0 offset 670
  ( 202) dim  0 offset 670
  ( 203) dim  0 offset 670
  ( 204) dim  0 offset 670
  ( 205) dim  0 offset 670
  ( 206) dim  0 offset 670
  ( 207) dim  0 offset 670
  ( 208) dim  0 offset 670
  ( 209) dim  0 offset 670
  ( 210) dim  0 offset 670
  ( 211) dim  0 offset 670
  ( 212) dim  0 offset 670
  ( 213) dim  0 offset 670
  ( 214) dim  0 offset 670
  ( 215) dim  0 offset 670
  ( 216) dim  0 offset 670
  ( 217) dim  0 offset 670
  ( 218) dim  0 offset 670
  ( 219) dim  0 offset 670
  ( 220) dim  0 offset 670
  ( 221) dim  0 offset 670
  ( 222) dim  0 offset 670
  ( 223) dim  0 offset 670
  ( 224) dim  0 offset 670
  ( 225) dim  0 offset 670
  ( 226) dim  0 offset 670
  ( 227) dim  0 offset 670
  ( 228) dim  0 offset 670
  ( 229) dim  0 offset 670
  ( 230) dim  0 offset 670
  ( 231) dim  0 offset 670
  ( 232) dim  0 offset 670
  ( 233) dim  0 offset 670
  ( 234) dim  0 offset 670
  ( 235) dim  0 offset 670
  ( 236) dim  0 offset 670
  ( 237) dim  0 offset 670
  ( 238) dim  0 offset 670
  ( 239) dim  0 offset 670
  ( 240) dim  0 offset 670
  ( 241) dim  0 offset 670
  ( 242) dim  0 offset 670
  ( 243) dim  0 offset 670
  ( 244) dim  0 offset 670
  ( 245) dim  0 offset 670
  ( 246) dim  0 offset 670
  ( 247) dim  0 offset 670
  ( 248) dim  0 offset 670
  ( 249) dim  0 offset 670
  ( 250) dim  0 offset 670
  ( 251) dim  0 offset 670
  ( 252) dim  0 offset 670
  ( 253) dim  0 offset 670
  ( 254) dim  0 offset 670
  ( 255) dim  0 offset 670
  ( 256) dim  0 offset 670
  ( 257) dim  0 offset 670
  ( 258) dim  0 offset 670
  ( 259) dim  0 offset 670
  ( 260) dim  0 offset 670
  ( 261) dim  0 offset 670
  ( 262) dim  0 offset 670
  ( 263) dim  0 offset 670
  ( 264) dim  0 offset 670
  ( 265) dim  0 offset 670
  ( 266) dim  0 offset 670
  ( 267) dim  0 offset 670
  ( 268) dim  0 offset 670
  ( 269) dim  0 offset 670
  ( 270) dim  0 offset 670
  ( 271) dim  0 offset 670
  ( 272) dim  0 offset 670
  ( 273) dim  0 offset 670
  ( 274) dim  0 offset 670
  ( 275) dim  0 offset 670
  ( 276) dim  0 offset 670
  ( 277) dim  0 offset 670
  ( 278) dim  0 offset 670
  ( 279) dim  0 offset 670
  ( 280) dim  0 offset 670
  ( 281) dim  0 offset 670
  ( 282) dim  0 offset 670
  ( 283) dim  0 offset 670
  ( 284) dim  0 offset 670
  ( 285) dim  0 offset 670
  ( 286) dim  0 offset 670
  ( 287) dim  0 offset 670
  ( 288) dim  0 offset 670
  ( 289) dim  0 offset 670
  ( 290) dim  0 offset 670
  ( 291) dim  0 offset 670
  ( 292) dim  0 offset 670
  ( 293) dim  0 offset 670
  ( 294) dim  0 offset 670
  ( 295) dim  0 offset 670
  ( 296) dim  0 offset 670
  ( 297) dim  0 offset 670
  ( 298) dim  0 offset 670
  ( 299) dim  0 offset 670
  ( 300) dim  0 offset 670
  ( 301) dim  0 offset 670
  ( 302) dim  0 offset 670
  ( 303) dim  0 offset 670
  ( 304) dim  0 offset 670
  ( 305) dim  0 offset 670
  ( 306) dim  0 offset 670
  ( 307) dim  0 offset 670
  ( 308) dim  0 offset 670
  ( 309) dim  0 offset 670
  ( 310) dim  0 offset 670
  ( 311) dim  0 offset 670
  ( 312) dim  0 offset 670
  ( 313) dim  0 offset 670
  ( 314) dim  0 offset 670
  ( 315) dim  0 offset 670
  ( 316) dim  0 offset 670
  ( 317) dim  0 offset 670
  ( 318) dim  0 offset 670
  ( 319) dim  0 offset 670
  ( 320) dim  0 offset 670
  ( 321) dim  0 offset 670
  ( 322) dim  0 offset 670
  ( 323) dim  0 offset 670
  ( 324) dim  0 offset 670
  ( 325) dim  0 offset 670
  ( 326) dim  0 offset 670
  ( 327) dim  0 offset 670
  ( 328) dim  0 offset 670
  ( 329) dim  0 offset 670
  ( 330) dim  0 offset 670
  ( 331) dim  0 offset 670
  ( 332) dim  0 offset 670
  ( 333) dim  0 offset 670
  ( 334) dim  0 offset 670
  ( 335) dim  0 offset 670
  ( 336) dim  0 offset 670
  ( 337) dim  0 offset 670
  ( 338) dim  0 offset 670
  ( 339) dim  0 offset 670
  ( 340) dim  0 offset 670
  ( 341) dim  0 offset 670
  ( 342) dim  0 offset 670
  ( 343) dim  0 offset 670
  ( 344) dim  0 offset 670
  ( 345) dim  0 offset 670
  ( 346) dim  0 offset 670
  ( 347) dim  0 offset 670
  ( 348) dim  0 offset 670
  ( 349) dim  0 offset 670
  ( 350) dim  0 offset 670
  ( 351) dim  0 offset 670
  ( 352) dim  0 offset 670
  ( 353) dim  0 offset 670
  ( 354) dim  0 offset 670
  ( 355) dim  0 offset 670
  ( 356) dim  0 offset 670
  ( 357) dim  0 offset 670
  ( 358) dim  0 offset 670
  ( 359) dim  0 offset 670
  ( 360) dim  0 offset 670
  ( 361) dim  0 offset 670
  ( 362) dim  0 offset 670
  ( 363) dim  0 offset 670
  ( 364) dim  0 offset 670
  ( 365) dim  0 offset 670
  ( 366) dim  0 offset 670
  ( 367) dim  0 offset 670
  ( 368) dim  0 offset 670
  ( 369) dim  0 offset 670
  ( 370) dim  0 offset 670
  ( 371) dim  0 offset 670
  ( 372) dim  0 offset 670
  ( 373) dim  0 offset 670
  ( 374) dim  0 offset 670
  ( 375) dim  0 offset 670
  ( 376) dim  0 offset 670
  ( 377) dim  0 offset 670
  ( 378) dim  0 offset 670
  ( 379) dim  0 offset 670
  ( 380) dim  0 offset 670
  ( 381) dim  0 offset 670
  ( 382) dim  0 offset 670
  ( 383) dim  0 offset 670
  ( 384) dim  0 offset 670
  ( 385) dim  0 offset 670
  ( 386) dim  0 offset 670
  ( 387) dim  0 offset 670
  ( 388) dim  0 offset 670
  ( 389) dim  0 offset 670
  ( 390) dim  0 offset 670
  ( 391) dim  0 offset 670
  ( 392) dim  0 offset 670
  ( 393) dim  0 offset 670
  ( 394) dim  0 offset 670
  ( 395) dim  0 offset 670
  ( 396) dim  0 offset 670
  ( 397) dim  0 offset 670
  ( 398) dim  0 offset 670
  ( 399) dim  0 offset 670
  ( 400) dim  0 offset 670
  ( 401) dim  0 offset 670
  ( 402) dim  0 offset 670
  ( 403) dim  0 offset 670
  ( 404) dim  0 offset 670
  ( 405) dim  0 offset 670
  ( 406) dim  0 offset 670
  ( 407) dim  0 offset 670
  ( 408) dim  0 offset 670
  ( 409) dim  0 offset 670
  ( 410) dim  0 offset 670
  ( 411) dim  0 offset 670
  ( 412) dim  0 offset 670
  ( 413) dim  0 offset 670
  ( 414) dim  0 offset 670
  ( 415) dim  0 offset 670
  ( 416) dim  0 offset 670
  ( 417) dim  0 offset 670
  ( 418) dim  0 offset 670
  ( 419) dim  0 offset 670
  ( 420) dim  0 offset 670
  ( 421) dim  0 offset 670
  ( 422) dim  0 offset 670
  ( 423) dim  0 offset 670
  ( 424) dim  0 offset 670
  ( 425) dim  0 offset 670
  ( 426) dim  0 offset 670
  ( 427) dim  0 offset 670
  ( 428) dim  0 offset 670
  ( 429) dim  0 offset 670
  ( 430) dim  0 offset 670
  ( 431) dim  0 offset 670
  ( 432) dim  0 offset 670
  ( 433) dim  0 offset 670
  ( 434) dim  0 offset 670
  ( 435) dim  0 offset 670
  ( 436) dim  0 offset 670
  ( 437) dim  0 offset 670
  ( 438) dim  0 offset 670
  ( 439) dim  0 offset 670
  ( 440) dim  0 offset 670
  ( 441) dim  0 offset 670
  ( 442) dim  0 offset 670
  ( 443) dim  0 offset 670
  ( 444) dim  0 offset 670
  ( 445) dim  0 offset 670
  ( 446) dim  0 offset 670
  ( 447) dim  0 offset 670
  ( 448) dim  0 offset 670
  ( 449) dim  0 offset 670
  ( 450) dim  0 offset 670
  ( 451) dim  0 offset 670
  ( 452) dim  0 offset 670
  ( 453) dim  0 offset 670
  ( 454) dim  0 offset 670
  ( 455) dim  0 offset 670
  ( 456) dim  0 offset 670
  ( 457) dim  0 offset 670
  ( 458) dim  0 offset 670
  ( 459) dim  0 offset 670
  ( 460) dim  0 offset 670
  ( 461) dim  0 offset 670
  ( 462) dim  0 offset 670
  ( 463) dim  0 offset 670
  ( 464) dim  0 offset 670
  ( 465) dim  0 offset 670
  ( 466) dim  0 offset 670
  ( 467) dim  0 offset 670
  ( 468) dim  0 offset 670
  ( 469) dim  0 offset 670
  ( 470) dim  0 offset 670
Process 1:
  field 2 "Alpha" with 1 components
Process 0:
  (   0) dim  0 offset   6
  (   1) dim  0 offset  12
  (   2) dim  0 offset  18
  (   3) dim  0 offset  24
  (   4) dim  0 offset  30
  (   5) dim  0 offset  36
  (   6) dim  0 offset  42
  (   7) dim  0 offset  48
  (   8) dim  0 offset  54
  (   9) dim  0 offset  60
  (  10) dim  0 offset  66
  (  11) dim  0 offset  72
  (  12) dim  0 offset  78
  (  13) dim  0 offset  84
  (  14) dim  0 offset  90
  (  15) dim  0 offset  96
  (  16) dim  0 offset 102
  (  17) dim  0 offset 108
  (  18) dim  0 offset 114
  (  19) dim  0 offset 120
  (  20) dim  0 offset 126
  (  21) dim  0 offset 132
  (  22) dim  0 offset 138
  (  23) dim  0 offset 144
  (  24) dim  0 offset 150
  (  25) dim  0 offset 156
  (  26) dim  0 offset 162
  (  27) dim  0 offset 168
  (  28) dim  0 offset 174
  (  29) dim  0 offset 180
  (  30) dim  0 offset 186
  (  31) dim  0 offset 192
  (  32) dim  0 offset 198
  (  33) dim  0 offset 204
  (  34) dim  0 offset 210
  (  35) dim  0 offset 216
  (  36) dim  0 offset 222
  (  37) dim  0 offset 228
  (  38) dim  0 offset 234
  (  39) dim  0 offset 240
  (  40) dim  0 offset 246
  (  41) dim  0 offset 252
  (  42) dim  0 offset 258
  (  43) dim  0 offset 264
  (  44) dim  0 offset 270
  (  45) dim  0 offset 276
  (  46) dim  0 offset 282
  (  47) dim  0 offset 288
  (  48) dim  0 offset 294
  (  49) dim  0 offset 300
  (  50) dim  0 offset 306
  (  51) dim  0 offset 312
  (  52) dim  0 offset 318
  (  53) dim  0 offset 324
  (  54) dim  0 offset 330
  (  55) dim  0 offset 336
  (  56) dim  0 offset 342
  (  57) dim  0 offset 348
  (  58) dim  0 offset 354
  (  59) dim  0 offset 360
  (  60) dim  0 offset 366
  (  61) dim  0 offset 372
  (  62) dim  0 offset 378
  (  63) dim  0 offset 384
  (  64) dim  0 offset 390
  (  65) dim  0 offset 396
  (  66) dim  0 offset 402
  (  67) dim  0 offset 408
  (  68) dim  0 offset 414
  (  69) dim  0 offset 420
  (  70) dim  0 offset 426
  (  71) dim  0 offset 432
  (  72) dim  0 offset 438
  (  73) dim  0 offset 444
  (  74) dim  0 offset 450
  (  75) dim  0 offset 456
  (  76) dim  0 offset 462
  (  77) dim  0 offset 468
  (  78) dim  0 offset 474
  (  79) dim  0 offset 480
  (  80) dim  0 offset 486
  (  81) dim  0 offset 492
  (  82) dim  0 offset 498
  (  83) dim  0 offset 504
  (  84) dim  0 offset 510
  (  85) dim  0 offset 516
  (  86) dim  0 offset 522
  (  87) dim  0 offset 528
  (  88) dim  0 offset 534
  (  89) dim  1 offset 537
  (  90) dim  1 offset 541
  (  91) dim  1 offset 545
  (  92) dim  1 offset 549
  (  93) dim  1 offset 553
  (  94) dim  1 offset 557
  (  95) dim  1 offset 561
  (  96) dim  1 offset 565
  (  97) dim  1 offset 569
  (  98) dim  1 offset 573
  (  99) dim  1 offset 577
  ( 100) dim  1 offset 581
  ( 101) dim  1 offset 585
  ( 102) dim  1 offset 589
  ( 103) dim  1 offset 593
  ( 104) dim  1 offset 597
  ( 105) dim  1 offset 601
  ( 106) dim  1 offset 605
  ( 107) dim  1 offset 609
  ( 108) dim  1 offset 613
  ( 109) dim  1 offset 617
  ( 110) dim  1 offset 621
  ( 111) dim  1 offset 625
  ( 112) dim  1 offset 629
  ( 113) dim  1 offset 633
  ( 114) dim  1 offset 637
  ( 115) dim  1 offset 641
  ( 116) dim  1 offset 645
  ( 117) dim  1 offset 649
  ( 118) dim  1 offset 653
  ( 119) dim  1 offset 657
  ( 120) dim  1 offset 661
  ( 121) dim  1 offset 665
  ( 122) dim  1 offset 669
  ( 123) dim  0 offset 670
  ( 124) dim  0 offset 670
  ( 125) dim  0 offset 670
  ( 126) dim  0 offset 670
  ( 127) dim  0 offset 670
  ( 128) dim  0 offset 670
  ( 129) dim  0 offset 670
  ( 130) dim  0 offset 670
  ( 131) dim  0 offset 670
  ( 132) dim  0 offset 670
  ( 133) dim  0 offset 670
  ( 134) dim  0 offset 670
  ( 135) dim  0 offset 670
  ( 136) dim  0 offset 670
  ( 137) dim  0 offset 670
  ( 138) dim  0 offset 670
  ( 139) dim  0 offset 670
  ( 140) dim  0 offset 670
  ( 141) dim  0 offset 670
  ( 142) dim  0 offset 670
  ( 143) dim  0 offset 670
  ( 144) dim  0 offset 670
  ( 145) dim  0 offset 670
  ( 146) dim  0 offset 670
  ( 147) dim  0 offset 670
  ( 148) dim  0 offset 670
  ( 149) dim  0 offset 670
  ( 150) dim  0 offset 670
  ( 151) dim  0 offset 670
  ( 152) dim  0 offset 670
  ( 153) dim  0 offset 670
  ( 154) dim  0 offset 670
  ( 155) dim  0 offset 670
  ( 156) dim  0 offset 670
  ( 157) dim  0 offset 670
  ( 158) dim  0 offset 670
  ( 159) dim  0 offset 670
  ( 160) dim  0 offset 670
  ( 161) dim  0 offset 670
  ( 162) dim  0 offset 670
  ( 163) dim  0 offset 670
  ( 164) dim  0 offset 670
  ( 165) dim  0 offset 670
  ( 166) dim  0 offset 670
  ( 167) dim  0 offset 670
  ( 168) dim  0 offset 670
  ( 169) dim  0 offset 670
  ( 170) dim  0 offset 670
  ( 171) dim  0 offset 670
  ( 172) dim  0 offset 670
  ( 173) dim  0 offset 670
  ( 174) dim  0 offset 670
  ( 175) dim  0 offset 670
  ( 176) dim  0 offset 670
  ( 177) dim  0 offset 670
  ( 178) dim  0 offset 670
  ( 179) dim  0 offset 670
  ( 180) dim  0 offset 670
  ( 181) dim  0 offset 670
  ( 182) dim  0 offset 670
  ( 183) dim  0 offset 670
  ( 184) dim  0 offset 670
  ( 185) dim  0 offset 670
  ( 186) dim  0 offset 670
  ( 187) dim  0 offset 670
  ( 188) dim  0 offset 670
  ( 189) dim  0 offset 670
  ( 190) dim  0 offset 670
  ( 191) dim  0 offset 670
  ( 192) dim  0 offset 670
  ( 193) dim  0 offset 670
  ( 194) dim  0 offset 670
  ( 195) dim  0 offset 670
  ( 196) dim  0 offset 670
  ( 197) dim  0 offset 670
  ( 198) dim  0 offset 670
  ( 199) dim  0 offset 670
  ( 200) dim  0 offset 670
  ( 201) dim  0 offset 670
  ( 202) dim  0 offset 670
  ( 203) dim  0 offset 670
  ( 204) dim  0 offset 670
  ( 205) dim  0 offset 670
  ( 206) dim  0 offset 670
  ( 207) dim  0 offset 670
  ( 208) dim  0 offset 670
  ( 209) dim  0 offset 670
  ( 210) dim  0 offset 670
  ( 211) dim  0 offset 670
  ( 212) dim  0 offset 670
  ( 213) dim  0 offset 670
  ( 214) dim  0 offset 670
  ( 215) dim  0 offset 670
  ( 216) dim  0 offset 670
  ( 217) dim  0 offset 670
  ( 218) dim  0 offset 670
  ( 219) dim  0 offset 670
  ( 220) dim  0 offset 670
  ( 221) dim  0 offset 670
  ( 222) dim  0 offset 670
  ( 223) dim  0 offset 670
  ( 224) dim  0 offset 670
  ( 225) dim  0 offset 670
  ( 226) dim  0 offset 670
  ( 227) dim  0 offset 670
  ( 228) dim  0 offset 670
  ( 229) dim  0 offset 670
  ( 230) dim  0 offset 670
  ( 231) dim  0 offset 670
  ( 232) dim  0 offset 670
  ( 233) dim  0 offset 670
  ( 234) dim  0 offset 670
  ( 235) dim  0 offset 670
  ( 236) dim  0 offset 670
  ( 237) dim  0 offset 670
  ( 238) dim  0 offset 670
  ( 239) dim  0 offset 670
  ( 240) dim  0 offset 670
  ( 241) dim  0 offset 670
  ( 242) dim  0 offset 670
  ( 243) dim  0 offset 670
  ( 244) dim  0 offset 670
  ( 245) dim  0 offset 670
  ( 246) dim  0 offset 670
  ( 247) dim  0 offset 670
  ( 248) dim  0 offset 670
  ( 249) dim  0 offset 670
  ( 250) dim  0 offset 670
  ( 251) dim  0 offset 670
  ( 252) dim  0 offset 670
  ( 253) dim  0 offset 670
  ( 254) dim  0 offset 670
  ( 255) dim  0 offset 670
  ( 256) dim  0 offset 670
  ( 257) dim  0 offset 670
  ( 258) dim  0 offset 670
  ( 259) dim  0 offset 670
  ( 260) dim  0 offset 670
  ( 261) dim  0 offset 670
  ( 262) dim  0 offset 670
  ( 263) dim  0 offset 670
  ( 264) dim  0 offset 670
  ( 265) dim  0 offset 670
  ( 266) dim  0 offset 670
  ( 267) dim  0 offset 670
  ( 268) dim  0 offset 670
  ( 269) dim  0 offset 670
  ( 270) dim  0 offset 670
  ( 271) dim  0 offset 670
  ( 272) dim  0 offset 670
  ( 273) dim  0 offset 670
  ( 274) dim  0 offset 670
  ( 275) dim  0 offset 670
  ( 276) dim  0 offset 670
  ( 277) dim  0 offset 670
  ( 278) dim  0 offset 670
  ( 279) dim  0 offset 670
  ( 280) dim  0 offset 670
  ( 281) dim  0 offset 670
  ( 282) dim  0 offset 670
  ( 283) dim  0 offset 670
  ( 284) dim  0 offset 670
  ( 285) dim  0 offset 670
  ( 286) dim  0 offset 670
  ( 287) dim  0 offset 670
  ( 288) dim  0 offset 670
  ( 289) dim  0 offset 670
  ( 290) dim  0 offset 670
  ( 291) dim  0 offset 670
  ( 292) dim  0 offset 670
  ( 293) dim  0 offset 670
  ( 294) dim  0 offset 670
  ( 295) dim  0 offset 670
  ( 296) dim  0 offset 670
  ( 297) dim  0 offset 670
  ( 298) dim  0 offset 670
  ( 299) dim  0 offset 670
  ( 300) dim  0 offset 670
  ( 301) dim  0 offset 670
  ( 302) dim  0 offset 670
  ( 303) dim  0 offset 670
  ( 304) dim  0 offset 670
  ( 305) dim  0 offset 670
  ( 306) dim  0 offset 670
  ( 307) dim  0 offset 670
  ( 308) dim  0 offset 670
  ( 309) dim  0 offset 670
  ( 310) dim  0 offset 670
  ( 311) dim  0 offset 670
  ( 312) dim  0 offset 670
  ( 313) dim  0 offset 670
  ( 314) dim  0 offset 670
  ( 315) dim  0 offset 670
  ( 316) dim  0 offset 670
  ( 317) dim  0 offset 670
  ( 318) dim  0 offset 670
  ( 319) dim  0 offset 670
  ( 320) dim  0 offset 670
  ( 321) dim  0 offset 670
  ( 322) dim  0 offset 670
  ( 323) dim  0 offset 670
  ( 324) dim  0 offset 670
  ( 325) dim  0 offset 670
  ( 326) dim  0 offset 670
  ( 327) dim  0 offset 670
  ( 328) dim  0 offset 670
  ( 329) dim  0 offset 670
  ( 330) dim  0 offset 670
  ( 331) dim  0 offset 670
  ( 332) dim  0 offset 670
  ( 333) dim  0 offset 670
  ( 334) dim  0 offset 670
  ( 335) dim  0 offset 670
  ( 336) dim  0 offset 670
  ( 337) dim  0 offset 670
  ( 338) dim  0 offset 670
  ( 339) dim  0 offset 670
  ( 340) dim  0 offset 670
  ( 341) dim  0 offset 670
  ( 342) dim  0 offset 670
  ( 343) dim  0 offset 670
  ( 344) dim  0 offset 670
  ( 345) dim  0 offset 670
  ( 346) dim  0 offset 670
  ( 347) dim  0 offset 670
  ( 348) dim  0 offset 670
  ( 349) dim  0 offset 670
  ( 350) dim  0 offset 670
  ( 351) dim  0 offset 670
  ( 352) dim  0 offset 670
  ( 353) dim  0 offset 670
  ( 354) dim  0 offset 670
  ( 355) dim  0 offset 670
  ( 356) dim  0 offset 670
  ( 357) dim  0 offset 670
  ( 358) dim  0 offset 670
  ( 359) dim  0 offset 670
  ( 360) dim  0 offset 670
  ( 361) dim  0 offset 670
  ( 362) dim  0 offset 670
  ( 363) dim  0 offset 670
  ( 364) dim  0 offset 670
  ( 365) dim  0 offset 670
  ( 366) dim  0 offset 670
  ( 367) dim  0 offset 670
  ( 368) dim  0 offset 670
  ( 369) dim  0 offset 670
  ( 370) dim  0 offset 670
  ( 371) dim  0 offset 670
  ( 372) dim  0 offset 670
  ( 373) dim  0 offset 670
  ( 374) dim  0 offset 670
  ( 375) dim  0 offset 670
  ( 376) dim  0 offset 670
  ( 377) dim  0 offset 670
  ( 378) dim  0 offset 670
  ( 379) dim  0 offset 670
  ( 380) dim  0 offset 670
  ( 381) dim  0 offset 670
  ( 382) dim  0 offset 670
  ( 383) dim  0 offset 670
  ( 384) dim  0 offset 670
  ( 385) dim  0 offset 670
  ( 386) dim  0 offset 670
  ( 387) dim  0 offset 670
  ( 388) dim  0 offset 670
  ( 389) dim  0 offset 670
  ( 390) dim  0 offset 670
  ( 391) dim  0 offset 670
  ( 392) dim  0 offset 670
  ( 393) dim  0 offset 670
  ( 394) dim  0 offset 670
  ( 395) dim  0 offset 670
  ( 396) dim  0 offset 670
  ( 397) dim  0 offset 670
  ( 398) dim  0 offset 670
  ( 399) dim  0 offset 670
  ( 400) dim  0 offset 670
  ( 401) dim  0 offset 670
  ( 402) dim  0 offset 670
  ( 403) dim  0 offset 670
  ( 404) dim  0 offset 670
  ( 405) dim  0 offset 670
  ( 406) dim  0 offset 670
  ( 407) dim  0 offset 670
  ( 408) dim  0 offset 670
  ( 409) dim  0 offset 670
  ( 410) dim  0 offset 670
  ( 411) dim  0 offset 670
  ( 412) dim  0 offset 670
  ( 413) dim  0 offset 670
  ( 414) dim  0 offset 670
  ( 415) dim  0 offset 670
  ( 416) dim  0 offset 670
  ( 417) dim  0 offset 670
  ( 418) dim  0 offset 670
  ( 419) dim  0 offset 670
  ( 420) dim  0 offset 670
  ( 421) dim  0 offset 670
  ( 422) dim  0 offset 670
  ( 423) dim  0 offset 670
  ( 424) dim  0 offset 670
  ( 425) dim  0 offset 670
  ( 426) dim  0 offset 670
  ( 427) dim  0 offset 670
  ( 428) dim  0 offset 670
  ( 429) dim  0 offset 670
  ( 430) dim  0 offset 670
  ( 431) dim  0 offset 670
  ( 432) dim  0 offset 670
  ( 433) dim  0 offset 670
  ( 434) dim  0 offset 670
  ( 435) dim  0 offset 670
  ( 436) dim  0 offset 670
  ( 437) dim  0 offset 670
  ( 438) dim  0 offset 670
  ( 439) dim  0 offset 670
  ( 440) dim  0 offset 670
  ( 441) dim  0 offset 670
  ( 442) dim  0 offset 670
  ( 443) dim  0 offset 670
  ( 444) dim  0 offset 670
  ( 445) dim  0 offset 670
  ( 446) dim  0 offset 670
  ( 447) dim  0 offset 670
  ( 448) dim  0 offset 670
  ( 449) dim  0 offset 670
  ( 450) dim  0 offset 670
  ( 451) dim  0 offset 670
  ( 452) dim  0 offset 670
  ( 453) dim  0 offset 670
  ( 454) dim  0 offset 670
  ( 455) dim  0 offset 670
  ( 456) dim  0 offset 670
  ( 457) dim  0 offset 670
  ( 458) dim  0 offset 670
  ( 459) dim  0 offset 670
  ( 460) dim  0 offset 670
  ( 461) dim  0 offset 670
  ( 462) dim  0 offset 670
  ( 463) dim  0 offset 670
  ( 464) dim  0 offset 670
  ( 465) dim  0 offset 670
  ( 466) dim  0 offset 670
  ( 467) dim  0 offset 670
  ( 468) dim  0 offset 670
  ( 469) dim  0 offset 670
  ( 470) dim  0 offset 670
Process 1:
DM Object: Parallel Mesh 2 MPI processes
  type: plex
Parallel Mesh in 3 dimensions:
  Number of 0-cells per rank: 22 25
  Number of 1-cells per rank: 84 89
  Number of 2-cells per rank: 108 108
  Number of 3-cells per rank: 45 44
Labels:
  depth: 4 strata with value/size (0 (22), 1 (84), 2 (108), 3 (45))
  celltype: 4 strata with value/size (0 (22), 1 (84), 3 (108), 6 (45))
  Cell Sets: 2 strata with value/size (1 (24), 2 (21))
Field U:
  adjacency FEM
Field Sigma:
  adjacency FEM
Field Alpha:
  adjacency FEM
